addr,area,min.dist
216.151.184.86,137572706698.77286,584145.2104077745
216.151.184.48,23570815494.222622,778024.0220036708
216.151.184.97,21448474961.319572,605907.9090781618
216.151.184.57,6397355320.671042,153949.42483957
216.151.184.102,34403148656.18441,540393.738183693
216.151.184.63,424460505.6708069,34459.777952498946
216.151.184.110,33608079284.55373,34459.777952498946
216.151.184.72,36701127338.230255,313705.61689126666
216.151.184.119,207310.40752814346,778024.0220036708
216.151.184.79,112072901960.60324,34459.777952498946
216.151.184.129,36692639589.049545,778024.0220036708
216.151.184.137,9893001263.525496,34459.777952498946
216.151.184.142,32271409348.11338,34459.777952498946
216.151.184.151,22607710359.02958,282049.38253294874
216.151.184.161,18621380673.57257,313705.61689126666
216.151.184.167,92120962165.09227,34459.777952498946
216.151.184.177,14005834107.490522,547200.517088697
216.151.184.183,14699874772.398748,34459.777952498946
216.151.184.192,5774146129.949698,267509.1058329928
216.151.184.198,16551903353.896545,34459.777952498946
