<?xml version="1.0" encoding="UTF-8" standalone="no"?>
<!-- Created with Inkscape (http://www.inkscape.org/) -->

<svg
   xmlns:dc="http://purl.org/dc/elements/1.1/"
   xmlns:cc="http://creativecommons.org/ns#"
   xmlns:rdf="http://www.w3.org/1999/02/22-rdf-syntax-ns#"
   xmlns:svg="http://www.w3.org/2000/svg"
   xmlns="http://www.w3.org/2000/svg"
   xmlns:sodipodi="http://sodipodi.sourceforge.net/DTD/sodipodi-0.dtd"
   xmlns:inkscape="http://www.inkscape.org/namespaces/inkscape"
   width="292"
   height="292"
   viewBox="0 0 77.258332 77.258333"
   version="1.1"
   id="svg8"
   sodipodi:docname="rtt-through-proxy.svg"
   inkscape:version="0.92.3 (2405546, 2018-03-11)">
  <defs
     id="defs2">
    <clipPath
       clipPathUnits="userSpaceOnUse"
       id="clipPath4280">
      <rect
         style="opacity:1;fill:#ff00ff;fill-opacity:1;fill-rule:nonzero;stroke:none;stroke-width:0.1;stroke-linecap:butt;stroke-linejoin:miter;stroke-miterlimit:4;stroke-dasharray:none;stroke-dashoffset:0;stroke-opacity:1"
         id="rect4282"
         width="23.5"
         height="23.5"
         x="0.25"
         y="0.29999924" />
    </clipPath>
    <clipPath
       clipPathUnits="userSpaceOnUse"
       id="clipPath3300">
      <rect
         y="391.6102"
         x="315.56232"
         height="293.5527"
         width="293.55307"
         id="rect3302"
         style="fill:none;fill-opacity:1;stroke:none;stroke-width:0.1;stroke-miterlimit:4;stroke-dasharray:none;stroke-opacity:1" />
    </clipPath>
    <clipPath
       clipPathUnits="userSpaceOnUse"
       id="clipPath1485">
      <rect
         y="221.07851"
         x="0.13229129"
         height="77.258331"
         width="77.258331"
         id="rect1487"
         style="fill:none;fill-opacity:1;stroke:none;stroke-width:0.02631837;stroke-miterlimit:4;stroke-dasharray:none;stroke-opacity:1" />
    </clipPath>
  </defs>
  <sodipodi:namedview
     id="base"
     pagecolor="#ffffff"
     bordercolor="#666666"
     borderopacity="1.0"
     inkscape:pageopacity="0.0"
     inkscape:pageshadow="2"
     inkscape:zoom="2"
     inkscape:cx="116.99266"
     inkscape:cy="119.18974"
     inkscape:document-units="mm"
     inkscape:current-layer="g1481"
     showgrid="false"
     units="px"
     inkscape:window-width="1920"
     inkscape:window-height="1016"
     inkscape:window-x="0"
     inkscape:window-y="27"
     inkscape:window-maximized="1"
     inkscape:snap-global="false"
     fit-margin-top="0"
     fit-margin-left="0"
     fit-margin-right="0"
     fit-margin-bottom="0">
    <inkscape:grid
       type="xygrid"
       id="grid896"
       originx="-0.13229128"
       originy="1.3368588" />
  </sodipodi:namedview>
  <metadata
     id="metadata5">
    <rdf:RDF>
      <cc:Work
         rdf:about="">
        <dc:format>image/svg+xml</dc:format>
        <dc:type
           rdf:resource="http://purl.org/dc/dcmitype/StillImage" />
        <dc:title></dc:title>
      </cc:Work>
    </rdf:RDF>
  </metadata>
  <g
     inkscape:label="Layer 1"
     inkscape:groupmode="layer"
     id="layer1"
     transform="translate(-0.13229129,-221.07851)">
    <rect
       style="fill:#f7fcfd;fill-opacity:1;stroke:none;stroke-width:0.02631837;stroke-miterlimit:4;stroke-dasharray:none;stroke-opacity:1"
       id="rect3048"
       width="77.258331"
       height="77.258331"
       x="0.13229129"
       y="221.07851" />
    <g
       id="g1481"
       clip-path="url(#clipPath1485)">
      <path
         transform="matrix(0.26458333,0,0,0.26458333,-83.492529,117.18645)"
         inkscape:connector-curvature="0"
         clip-path="url(#clipPath3300)"
         d="m 601.61146,480.79604 -1.18863,0.13208 c 0.92449,0.26415 1.71692,0.66036 2.37726,1.32072 0,0 0.13208,0 0.13208,0 -0.3962,-0.52829 -0.9245,-0.92451 -1.32071,-1.4528 z m -12.15055,-44.90418 c 0.3962,1.45278 -0.92449,8.5846 -3.30178,7.79219 -0.79243,-0.26414 -1.45277,-1.18865 -2.37728,-1.18865 0.92451,-1.18863 -3.03763,-0.26412 -4.0942,0 -0.92451,0.26416 -1.71693,1.05659 -2.64144,1.18865 -0.3962,0 -0.66033,-0.66036 -1.05655,-0.66036 -1.05657,-0.13207 -2.11315,0 -3.03765,0.26414 -0.3962,0.13208 -0.13206,0.9245 -0.52828,1.18863 -1.849,0.79245 0.13208,-4.4904 -2.50935,2.50937 -0.13208,0.13207 0.66035,3.83007 0.52828,3.83007 -4.35834,-0.13208 -1.98107,-8.3205 0.52829,-9.24498 2.24522,-1.05658 5.41493,0.13207 7.66014,-0.79244 3.03762,-1.45277 2.37727,-5.67905 5.15076,-7.26391 0.92451,-0.39622 2.11314,-0.13208 3.03765,-0.52828 0.92449,-0.52828 1.45277,-2.37728 2.50935,-2.37728 1.98106,0 -1.05658,1.45279 -1.18864,2.64142 -0.26416,1.849 0.66035,0.66035 1.3207,2.64143 z m -23.11246,25.22558 c 0,0.26414 0,0.66036 0,1.05657 -0.13206,-0.79243 -0.13206,-1.58486 0,-1.05657 z m 39.8855,19.2824 h -0.66035 c 0,0.13206 0,0.26414 0,0.26414 0.13206,0.26414 0,0.39621 0,0.52829 -0.39622,0.26414 -0.92449,0.66035 -1.05657,0.92449 -0.39622,0.26416 -0.66037,0.52829 -0.79243,0.9245 0,0 -0.13208,0.13207 -0.13208,0.13207 0,0.13206 0,0.13206 0,0.13206 0,0 0,-0.13206 0,-0.26413 -0.79243,0 -1.71692,-0.13208 -2.11312,0 -0.66036,0.13207 -1.18865,1.3207 -1.98108,1.18863 -1.05657,-0.13206 -1.58485,-1.45277 -2.50936,-1.98105 -0.66034,-0.39622 -1.58484,-0.66036 -2.11314,-1.18865 -0.3962,-0.26415 1.05659,-0.52829 2.37728,-2.90557 1.849,1.58486 4.6225,1.98106 6.20735,3.30179 0.13207,0.13207 0.13207,0.13207 0.13207,0.13207 -0.79243,-1.18864 -2.50934,-2.11313 -1.84898,-3.16972 0.26413,-0.52826 1.05655,-0.26414 1.45277,-0.39621 0.9245,0.9245 2.90557,0.79243 3.16971,1.98107 0,0.13206 0,0.26414 -0.13207,0.39622 z m -27.60286,0.79243 c -1.71694,-0.26415 -3.43386,-1.18865 -5.15079,-1.45279 -0.39621,0 -1.98106,0.13207 -2.90557,0 0,-0.66035 0,-1.32072 0.13208,-2.11315 0,-0.66034 1.05657,-1.45277 0.52829,-1.98105 0.52828,-0.66035 -0.26415,-1.71694 -0.26415,-2.64143 -0.13208,-0.79243 0.26415,-1.98106 -0.26414,-2.50937 -1.18865,-1.18863 -4.62249,0.13209 -5.28285,-2.24519 -0.39621,-1.4528 0.92449,-3.03764 0.92449,-4.75457 0.13208,0.13208 0.13208,0.13208 0.26416,0.26415 4.0942,1.98107 1.45277,-3.30177 1.18864,-3.83006 -0.13209,-0.26414 -0.26416,-1.05657 -0.66038,-0.79243 -0.66034,0.26412 -0.52826,1.45277 -1.18863,1.58485 -0.3962,0.13207 -0.13206,-0.92451 -0.13206,-1.32073 0.13206,-0.92447 0.39621,-1.84897 0.39621,-2.6414 0.13206,-0.79243 -0.66035,-1.849 0,-2.37729 0.13206,-0.13206 0.39622,-0.26414 0.52828,-0.26414 -0.13206,-0.26414 -0.66035,-5.94319 0.66037,-5.41493 0.79243,0.26417 0.26412,1.58487 0.66034,2.24522 1.18865,2.77351 6.86771,-4.0942 7.13185,-4.0942 2.77349,-0.79242 -0.39622,3.56592 0.13208,4.22628 0.52827,0.66035 1.58484,0.13206 2.50935,-0.13208 -0.26415,0 -0.39623,0 -0.39623,-0.13206 -0.26414,-0.66036 0.52829,-1.45279 0.13208,-1.98106 -0.26414,-0.39622 -1.05657,0.66034 -1.18863,0.26412 -0.26416,-0.52826 0.79241,-0.92448 0.79241,-1.45277 0.13208,-3.03765 -1.84898,-2.11314 0.66037,-3.96214 0.52828,-0.52828 2.11313,-0.39622 2.50934,0 0.26414,0.26414 -0.39621,1.45278 -0.13206,1.18865 0.52828,-0.5283 0.52828,-1.71693 1.18863,-2.11314 0.52829,-0.26416 1.18865,0 1.71694,0 0.66034,0.39621 3.83005,1.18863 3.83005,1.18863 0.26415,0.79243 -0.39622,1.71694 -0.26414,2.64143 0,0.66035 1.05657,1.32071 0.79243,1.98108 -0.26414,0.52826 -1.18865,-0.13208 -1.71694,0 -0.79243,0.13204 1.98108,0.66034 1.849,1.45277 0,0.26414 -0.13206,0.39621 -0.13206,0.52829 0.52828,0.13206 0.66036,1.32071 1.32071,1.45277 1.58486,0.39622 3.96213,-1.84899 4.62249,1.18865 0.26414,1.05657 -2.90557,6.33942 -3.96214,5.81112 -0.92449,-0.52827 -0.92449,-2.2452 -1.98106,-2.64141 -1.18865,-0.39622 -1.05657,6.47148 -1.45278,7.26391 -0.66037,1.71692 -1.71693,2.90555 -3.56593,2.90555 -0.92449,0 -2.90557,-1.45277 -2.64142,-0.52827 0.39622,0.92449 2.50936,0.3962 3.03764,1.45278 0,0.13206 0,0.26414 0,0.39622 0.13207,0 0.26415,0 0.26415,0 0.52828,0 0.66034,0.92449 1.05655,0.92449 1.4528,-0.3962 2.50936,-2.64143 3.96215,-2.11314 0.79243,0.39622 1.18864,1.58486 2.11312,1.71694 0.52829,0.13206 0.66037,-0.79245 1.05658,-1.05659 2.37728,4.88664 -0.52829,0.66037 0.39621,2.50936 0.79243,1.4528 3.30178,7.52807 -1.58484,6.99977 -1.05658,-0.13207 -1.98107,-0.92449 -3.03764,-1.18863 -0.39622,0 -1.05657,0.66034 -1.45278,0.26414 -1.05658,-0.79243 2.64141,-0.52828 0.52827,-1.71694 -3.30177,-1.71691 0,1.18866 -1.05656,1.18866 -0.39621,0 -1.32072,-3.96215 -1.32072,-4.0942 -0.3962,-0.92451 -1.71693,-1.4528 -1.98106,-2.50937 0,-0.13206 0.13207,-0.13206 0.13207,-0.13206 -1.05658,0.3962 -2.50935,0.66034 -2.50935,0.79241 -0.26416,0.5283 1.32071,0 1.58485,0.5283 0.13207,0.39621 -0.79242,0.52826 -0.79242,0.92448 -0.13208,0.79244 0,1.58487 0.26414,2.24521 0.13206,0.39622 0.79241,0.52829 0.79241,0.92451 0,1.45278 -2.37726,1.98106 -2.6414,3.43385 0,0.52828 1.05656,-0.26416 1.45277,0 0.9245,0.66035 1.71693,1.58486 1.849,2.64141 0.13206,0.5283 -0.9245,-1.05655 -1.45278,-0.92449 -0.66036,0.26416 -1.45277,1.45279 -1.84899,1.98108 z m -28.46538,22.67169 c -2.78297,-0.073 -12.02235,2.00876 -13.13672,3.74219 -0.66035,0.79244 -0.92485,1.58574 -1.45313,2.24609 0.52828,-0.13208 0.92532,-0.26441 1.18945,-0.39648 0.13208,0.26413 0.39454,0.52884 0.39454,0.79297 -0.13208,0.92451 -0.65894,1.71614 -0.79102,2.64063 0,0.44574 0.44426,0.50076 1.0293,0.45899 0.19501,-0.0139 0.40648,-0.0377 0.62109,-0.0625 0.85846,-0.0991 1.78273,-0.19783 2.04688,0.39647 0.39622,0.92452 -1.71728,1.84896 -1.45313,2.77345 0.26414,0.9245 1.98223,0.65995 2.64258,1.3203 1.71694,1.71695 -3.69779,5.81056 -4.49024,5.81056 l -5.15234,-2.37695 c -0.26416,-0.39623 1.05813,-0.39677 1.32227,-0.79298 0.79243,-0.79243 -0.92598,-2.50909 -0.26563,-3.43359 0.52829,-0.92452 1.98175,-0.65998 2.90625,-1.32032 2.11314,-1.58485 -3.69765,0.52873 -2.37695,-4.09375 v 0 c -0.9245,0.26412 -2.1126,-0.13281 -3.03711,-0.13281 -0.39622,0 -0.79371,-0.26294 -0.92578,-0.13086 -1.71693,2.11313 -1.18805,6.33876 -1.98047,8.58399 -0.79243,1.98106 -2.37728,4.22568 -3.83008,5.81054 -0.52826,0.66035 -0.92558,1.45342 -1.58594,1.84961 -0.39622,0.26416 -1.31911,-0.26462 -1.45117,0.26367 -0.26416,0.79243 0.92355,1.85015 0.52735,2.64258 -1.32071,2.11314 -5.41472,1.0557 -4.49024,1.58398 1.05658,0.66037 1.84846,1.585 3.03711,2.11328 0.52829,0.13208 1.05692,-0.66134 1.45313,-0.52929 0.52828,0.13209 1.45286,0.92605 1.05664,1.32226 -0.66037,0.39622 -2.37696,-1.05805 -2.37696,-0.26562 0.13207,1.18864 3.56659,1.05791 2.90625,1.98242 -1.98107,2.64143 -3.83062,-2.24487 -4.62304,-2.37695 -2.50936,-0.66037 -4.88645,-0.26434 -4.49024,0.66015 0,0.13208 4.0943,2.90551 4.88672,2.77344 0.26414,0 0.13235,-0.52882 0.39649,-0.79297 0.52829,-0.39622 1.05569,0.52809 1.58398,0.66016 0.52829,0.26414 1.32132,-0.2646 1.84961,0.26367 0.26414,0.26414 0.5281,0.66043 0.66015,1.05664 0.39621,0.13207 0.66043,0.26488 1.05665,0.13281 0.92451,0 -1.58573,-3.03778 1.58398,-2.11328 0.26414,0 -0.26292,0.6609 -0.13086,0.79297 1.58487,1.32071 1.98129,-1.85028 3.16992,-0.92578 0.39622,0.39622 -1.05832,1.18899 -0.66211,1.45313 3.03762,1.58483 0.39616,-0.39556 2.77344,-0.92383 0.39622,-0.13208 1.05793,3.69801 1.98242,3.83007 2.11313,0.39622 4.8866,0.26457 6.60352,2.50977 0.13208,0.26415 -0.52808,0.52688 -0.66016,0.79102 -0.26414,0.79242 -0.92456,1.45368 -1.05664,2.24609 0,0.26414 0.65942,0.13232 0.52734,0.39648 -0.13207,0.39621 -0.79174,0.52837 -0.92382,1.05664 -0.92449,3.30178 1.32045,2.37576 3.43359,2.50782 h 0.13281 c -0.26414,-0.39621 -0.39648,-0.79176 -0.39648,-0.92383 0.13208,-0.52828 1.05542,-0.52836 1.1875,-1.05664 0.39622,-2.24522 -3.43277,-3.03664 -2.24414,-3.30078 0.39622,-0.13207 0.65969,0.39453 0.92383,0.39453 l 2.50976,-2.24414 c 0.13207,-0.66035 -1.58494,0.13274 -1.05664,-0.92383 0.39621,-0.92449 1.32058,-1.58528 1.7168,-2.50977 1.18863,-2.90557 -1.71734,-5.01985 -2.50977,-6.47265 -0.13208,-0.26412 0.1316,-0.65969 0.26367,-0.92383 0,-0.26415 -0.26413,-0.66091 0,-0.79297 0.66036,-0.39622 1.45367,4.8e-4 2.2461,-0.26367 0.26414,-0.13207 -0.26414,-0.92505 0,-0.79297 0.79242,0.26414 1.3216,1.18945 2.24609,1.18945 0.92451,0.13208 4.4905,-1.05598 4.88672,-1.98046 0.3962,-0.92451 -2.51092,-1.05718 -1.32226,-1.84961 2.11313,-1.45278 4.62399,-1.98142 4.0957,-5.28321 -0.13206,-1.84899 -5.01873,-1.05604 -3.83008,-3.03711 0.13206,-0.3962 0.79102,4.7e-4 0.79102,-0.26367 0.13206,-0.39622 -0.52857,-0.79323 -0.39649,-1.18945 0,-0.26414 0.39796,-0.26367 0.66211,-0.26367 0.92448,0 1.71612,0.39648 2.64063,0.39648 1.05657,0 0.13112,-2.11336 0.52734,-3.16992 0.26415,-0.9245 2.51022,-5.15128 2.24609,-7.39649 -2.64143,1.32071 -2.90517,-3.56546 -5.15039,-4.09375 -0.12381,-0.0248 -0.28126,-0.0401 -0.46679,-0.0449 z m -16.9668,7.70509 c 1.10877,-0.58545 1.63257,-0.98492 2.37695,-1.7168 -0.75382,0.64599 -1.46188,1.20103 -2.37695,1.7168 z m -19.89258,25.53906 c -0.34669,0.0165 -0.71121,0.0828 -1.10742,0.21485 l 0.26367,0.52733 c -0.26413,3.43386 2.51113,1.18879 4.49219,2.11328 0.26414,0.1321 -0.26412,0.66165 0,0.92579 1.58485,1.05656 2.90437,-0.79425 3.96094,-1.71875 -0.66035,-0.66036 -1.45266,-1.18823 -1.7168,-1.32032 -0.66037,-0.13207 -0.79277,1.05664 -1.45313,1.05664 -2.2452,0 -0.79218,-1.32059 -3.43359,-1.71679 -0.33018,-0.066 -0.65917,-0.0985 -1.00586,-0.082 z m 65.32476,76.02325 0.66036,1.45277 v 1.58485 c -0.66036,0 -1.05657,-0.13207 -1.18865,-0.13207 -0.13208,-0.13207 0.26414,-1.45278 0.52829,-2.90555 z m -32.09331,61.54516 c 1.05657,0 1.98108,-0.92451 1.98108,-1.849 0,-0.92451 -0.92451,-1.71694 -1.98108,-1.71694 -1.05657,0 -1.98106,0.79243 -1.98106,1.71694 0,0.92449 0.92449,1.849 1.98106,1.849 1.05657,0 -1.05657,0 0,0 z M 502.95477,541.94404 c -1.4528,0.26413 -3.03821,0.39724 -4.62305,0.5293 -1.18865,0.13208 -5.54593,0.39561 -6.07422,1.98048 -0.26414,0.66036 -1.32226,7.00127 -1.32226,7.92577 0,0.39621 0.66015,0.39602 0.66015,0.66016 0,0.26414 -0.52686,-0.26414 -0.79101,0 -0.26414,0.26414 -0.3977,0.92409 -0.26563,1.32031 0.13208,0.79244 1.58567,1.18805 1.18946,1.98046 -0.39622,0.79246 -1.84821,0.66043 -2.64063,1.05665 -0.92451,0.5283 -1.5853,1.32058 -2.50977,1.71679 -2.3773,1.32071 -11.22617,1.58607 -12.54687,3.69922 -1.84901,3.1697 -0.52896,4.09329 0.92383,4.35743 -0.66036,0 -1.18852,7.4e-4 -1.7168,0.13281 -2.24521,0.66035 -1.58542,2.37667 -4.62305,1.98046 -0.66035,-0.13208 -1.05644,-1.05691 -1.71679,-1.45312 -1.84899,-0.92449 -4.35682,-1.32085 -6.33789,-2.11328 -4.22628,-1.58486 3.5653,1.71821 -1.84961,0.92578 -0.13209,0 -1.58567,-4.22683 -1.18946,-4.62305 0.26414,-0.26414 0.6609,-0.13234 0.79297,-0.39648 0.26413,-0.5283 0.5283,-1.32107 0,-1.45312 -0.9245,-0.5283 -1.98054,0 -3.03711,0 -0.26414,0 -0.66166,0.26489 -0.92578,0.13281 -1.05659,-0.26414 -1.98054,-0.79202 -3.03711,-1.32031 -0.13207,-0.13208 -0.39648,-0.92627 -0.39648,-0.66211 0.13207,0.92448 0.66015,1.84894 0.66015,2.77343 0,0.26414 -0.66015,0.39675 -0.66015,0.79297 -0.13208,0.79241 10e-4,1.85017 0.26562,2.64258 0.26415,0.39622 1.05542,0.3948 1.1875,0.79102 0.39622,0.66035 0.13233,1.7166 0.39649,2.37695 0.13206,0.26414 0.92383,-0.13134 0.92383,0.13281 0,1.05655 -0.7925,2.1126 -1.05664,3.03711 -0.13208,0.52828 0.13234,0.66015 0.39648,0.66015 -0.39622,0.9245 -0.65969,1.84895 -0.92383,2.77344 -0.39621,1.45277 2.6411,2.5101 2.37696,3.9629 -0.26415,0.79242 -1.8482,-0.39649 -2.64063,-0.39649 -0.79242,-0.13206 -1.45366,0.26487 -2.24609,0.13281 -0.79241,-0.13208 -0.92364,-2.90496 -1.58399,-1.98047 -0.66034,0.92451 -0.13216,2.64089 -1.05664,3.03711 -3.16972,1.3207 -2.11409,-3.3018 -3.30273,-3.83008 -0.66036,-0.26414 -1.18924,0.79128 -1.84961,1.1875 -0.92449,0.39621 -1.71538,0.52836 -2.50781,1.05664 -0.26415,0 -0.26441,0.66136 -0.39649,0.5293 -0.52827,-1.05657 -2.64236,-6.7353 -3.30273,-6.20703 -0.39621,0.26414 -0.3948,1.18797 -0.79102,0.92383 -0.66035,-0.3962 -0.13262,-1.71706 -0.79297,-2.11328 -0.66034,-0.39621 -1.58452,0.39648 -2.37695,0.39648 -0.3962,0 -0.92531,-0.79148 -1.18945,-0.52734 -0.79243,0.5283 -0.26421,2.24367 -1.05665,2.50781 -0.9245,0.26413 -1.58526,-1.45312 -2.50976,-1.45312 -0.52827,0.13206 -0.13188,1.71876 -0.66016,1.71876 -0.79242,-0.26413 -0.39509,-1.84915 -1.1875,-2.11329 -0.92451,-0.26414 -1.84892,0.79176 -2.77343,0.92382 -3.16971,0.92452 0.13052,-0.79296 -1.32227,-0.79296 -1.18863,0 -5.54566,1.71679 -5.67773,1.71679 -2.7735,7.13185 5.5466,1.05773 5.15039,2.64258 -0.13206,0.79243 -2.24462,0.52788 -1.98047,1.32031 0.3962,0.92449 1.97978,0.65923 2.90429,1.1875 0.39621,0.26414 -0.79201,-0.26367 -1.32031,-0.26367 -0.79241,-0.13206 -1.58377,0.13328 -2.24414,-0.13086 l -0.13281,-0.13281 c 0.79243,1.3207 1.98047,3.16944 1.98047,3.43359 0,0.26414 -0.65971,-0.26367 -0.92383,-0.26367 -1.32072,0 -2.64218,-0.13132 -3.96289,0.13281 -0.26415,0 -0.65942,0.39527 -0.52735,0.52736 1.05658,0.66033 2.77371,0.26474 3.16993,1.8496 0.26415,0.9245 -0.52876,2.376 0.26367,2.90429 0.79243,0.66035 2.11263,-0.13112 3.03711,-0.52734 0.26415,-0.13206 -0.26414,-0.79176 0,-0.92383 3.30178,-0.26416 1.18932,1.31991 2.90625,2.64063 0.39621,0.3962 1.05571,-0.13207 1.58398,0 0.79244,0.3962 1.85015,2.11233 2.64258,2.64062 1.05657,0.66036 0.66049,-1.1887 2.11328,-1.05664 2.77349,0.26414 1.45165,1.98231 1.1875,3.69922 v 0.13086 c 0,-0.13207 0.13161,-0.26442 0.26367,-0.39649 0.9245,-0.39622 1.98251,0.39649 3.03907,0.39649 0.39621,-0.13207 0.52761,-0.52735 0.92382,-0.52735 0.13206,0.13208 7.6e-4,0.52808 0.13282,0.66016 0.13208,0.13206 0.92306,-0.26488 0.79101,-0.13281 -0.79245,0.52828 -2.37547,0.92585 -2.11133,1.98242 0.13207,0.66037 5.67896,-0.7931 5.54688,0.92383 -0.13206,2.90556 -5.15126,4.22563 0.26367,4.75391 h 0.13086 c -0.13206,0.39621 -0.13133,0.92509 0.13281,1.8496 0,0.13208 3.16889,0.92465 2.64063,2.11329 -0.26417,0.52828 -2.90523,1.8492 -2.37695,3.16993 0.3962,0.92447 1.05765,1.84818 1.58593,2.64061 0.13208,0.13208 0.52808,7.4e-4 0.66016,0.13282 0.5283,0.66035 0.66089,3.56474 0.79297,3.96093 2.24521,4.35836 0.92351,-0.52646 3.30078,1.71875 0.39622,0.26414 2.6e-4,1.18703 0.39648,1.45117 0.39621,0.26415 0.9241,-0.26293 1.32032,-0.13085 0.52829,0.39621 0.65995,1.45266 1.32031,1.7168 0.26414,0.13207 10e-4,-0.66091 0.26562,-0.79297 0.39621,-0.13208 1.05664,-0.13133 1.05664,0.13281 0,0.92451 -0.79297,1.84896 -0.79297,2.77344 0,0.79243 0.92504,1.45171 0.79297,2.24414 -0.13207,1.05657 -1.32177,1.58603 -1.58593,2.64258 -0.26414,1.05657 2.64128,2.37602 1.71679,2.9043 -0.79243,0.39622 -1.71735,0.13328 -2.50976,-0.13086 0.79241,0.52828 1.45414,1.18729 1.98242,1.84765 0.79243,0.92449 1.71584,1.84968 2.24414,2.90625 1.05655,1.98106 -0.3964,5.15027 0.66016,6.86719 0.52829,0.66036 1.45266,0.92439 1.71679,1.7168 0.13208,0.52829 -0.26345,1.45386 -0.92382,1.58594 -0.39623,0.13206 0.13206,-1.05693 0,-1.45313 -0.26414,-0.79243 -1.05618,-1.45366 -1.32032,-2.24609 -1.32072,-4.22627 1.18887,-0.5281 -0.66015,-4.49024 -0.52827,-1.32071 -2.37795,-4.22507 -2.90625,-3.96093 -1.45277,1.05656 -2.90532,8.8478 -3.4336,10.96093 -0.26415,1.32072 -2.24454,3.43386 -0.92383,3.83008 0.66036,0.26415 0.79082,-1.5852 1.45118,-1.45312 0.79241,0.13206 1.71847,1.18926 1.32226,1.84961 -0.26414,0.66036 -1.45412,-0.52782 -1.98242,-0.26368 -0.66035,0.26414 -0.92335,1.18925 -1.1875,1.84961 -1.45279,3.96214 -3.03713,16.6393 -6.86719,18.48828 -0.52828,0.26414 -1.05719,0.39724 -1.84961,0.5293 0.79242,0.79243 2.24414,2.11328 2.24414,2.11328 0.26413,0.13207 0.13356,-0.52929 0.26563,-0.52929 0.66036,0.13208 1.45143,0.3975 1.84766,0.92578 1.18862,1.3207 -2.64077,2.90483 -0.92383,3.69726 0.79243,0.26414 1.58547,-1.18798 1.84961,-0.92383 0.13207,0.26414 -0.26414,0.92336 0,1.1875 1.84901,1.71692 4.75379,1.05624 6.4707,2.37696 0.13208,0.13206 1.4519,3.16992 1.58398,3.16992 1.71693,1.32071 3.43421,-1.05557 5.28321,0.5293 0.92449,0.79241 0.2655,2.50976 1.98242,2.50976 0.79243,0.13208 1.32085,-0.66138 2.11328,-0.5293 0.79241,0.13208 1.18805,1.05741 1.98047,1.18946 0.39621,0 0.39675,-0.79297 0.79297,-0.79297 1.32072,-0.13206 2.50815,0.92457 3.96093,1.05664 0,0 -0.65907,-3.03758 0.92579,-2.77344 2.24522,0.3962 3.56479,1.98009 5.01757,3.30078 0.13207,0.13208 0.52883,0 0.79297,0 0.66037,0.13208 1.45339,0.13309 1.84961,0.5293 0.22351,0.17881 0.31359,0.43911 0.37696,0.71289 h 21.0664 c -0.31501,-0.15178 -0.8418,-0.14994 -0.8418,-0.44922 0.13206,-1.45278 1.84914,-2.24568 2.11329,-3.5664 0,-0.39622 -0.66063,-0.92337 -0.39649,-1.1875 1.58486,-2.24522 4.22616,-1.71662 5.54688,-2.37696 1.45279,-0.79243 3.56676,-3.43415 5.01953,-4.22656 1.32071,-0.79243 2.6407,0.92485 3.69726,1.45313 0.39622,0.26415 5.02027,0.79202 5.15235,1.32031 0.13204,0.52828 -1.71847,3.3009 2.50781,1.58398 1.18864,-0.52828 -2.90563,-1.45129 -1.05664,-3.56445 0.39621,-0.52827 -0.26353,3.1687 1.84961,3.30078 0.92449,0.13208 1.98026,-0.26346 2.64062,-0.92383 0.39621,-0.52826 -1.05609,-1.9812 -0.26367,-2.11328 0.9245,-0.13206 2.37695,0.66023 2.37695,1.7168 -0.13207,1.05657 -2.50854,0.66024 -2.64062,1.71679 -0.13206,0.79243 1.45366,0.52735 2.24609,0.52735 0.52829,0 1.05617,-0.92355 1.32032,-0.52735 0.52828,0.66036 -0.13301,1.98028 0.52734,2.64063 0.66035,0.66036 1.71807,0.52882 2.64258,0.79297 0.52829,0 0.92411,-0.13207 1.32031,0 1.849,0.9245 0.92383,1.58549 0.92383,1.84961 0.13207,0.26415 0.52956,0.26367 0.92578,0.26367 0.39623,0.13207 0.92336,0.13133 1.1875,-0.13281 0.26414,-0.26413 -1.58413,-1.05589 0.13281,-0.92383 2.64142,0.13209 1.71565,1.9802 2.9043,1.58398 1.05657,-0.39621 1.85042,-1.58353 3.03906,-1.84765 0.9245,-0.13208 2.24395,0.52755 2.9043,-0.13282 0.52829,-0.39622 -0.65941,-1.18851 -0.52734,-1.71679 0.26413,-0.66035 1.32057,-0.79203 1.71679,-1.32032 0.39621,-0.3962 0.13115,-1.05739 0.52735,-1.18945 0.5283,-0.26414 1.1885,0.39695 1.71679,0.13281 0.66034,-0.52828 0.52835,-1.58424 1.05664,-1.98046 0.66035,-0.39621 1.585,0.1306 2.11328,-0.26563 0.52829,-0.39622 -0.13059,-1.32059 0.26563,-1.7168 0.52829,-0.52828 1.45173,-0.65895 2.24414,-0.79101 0.13206,0 7.5e-4,0.52809 0.13281,0.66015 0.26416,0 -0.13206,-0.52809 0,-0.66015 0.26416,-0.26415 2.50855,-1.05664 2.64063,-1.05664 -0.66036,-2.37727 3.83067,-5.41637 1.84961,-6.86914 -0.66036,-0.39621 -1.58452,0.13354 -2.37696,0.26562 -0.79243,0 -1.71733,0.395 -2.50976,0.13086 -1.45277,-0.3962 -4.88598,-2.9049 -4.75391,-4.7539 0,-0.26414 0.66016,-0.26518 0.66016,-0.5293 -0.13207,-0.39622 -1.45285,-0.79156 -1.05664,-1.58399 0.52829,-0.52828 1.18776,-0.92362 1.58398,-1.58398 0.13208,-0.13207 -0.26292,-0.39797 -0.13086,-0.66211 0.13208,-0.39621 1.31909,0.26536 1.45117,-0.13086 0,-1.05655 -0.13114,-2.11384 -0.52734,-2.90625 -0.66035,-1.05657 -5.01806,-2.77359 -4.75391,-4.88672 0,-0.66036 1.1873,-0.66089 1.84766,-0.79297 0.3962,0 0.66043,0.79419 1.05664,0.66211 0.66034,-0.13206 4.88691,-3.56723 4.22656,-4.75586 -0.39622,-0.79241 -1.71707,-0.92316 -2.11328,-1.84765 -0.39622,-0.52828 0.13133,-1.45414 -0.13281,-1.98242 -1.849,-3.16972 -5.28229,-1.58449 0.79297,-5.1504 -0.52829,-0.79244 -0.52715,-1.71658 -1.1875,-2.37695 -0.13207,-0.26414 -0.66091,0.5278 -0.79297,0.26367 -0.13208,-0.39622 0.52781,-1.05691 0.26367,-1.45312 -0.13208,-0.3962 -0.92336,4.6e-4 -1.1875,-0.26367 -0.79241,-1.32071 1.05589,-1.18805 0.92383,-1.98047 -0.13208,-0.66037 -0.92383,-0.92559 -0.92383,-1.58594 -0.13207,-0.39622 0.92282,-1.18825 0.39453,-1.32031 -1.71693,-0.79243 -5.41486,-0.79234 -6.60351,1.05664 -0.26414,0.26416 -0.13086,0.52762 -0.13086,0.92383 0.13208,0.26414 0.79221,0.52883 0.66015,0.79296 -0.79243,1.58486 -2.64171,2.24583 -4.22656,1.84961 -0.13207,0 0.52735,-0.26515 0.52735,-0.52929 0,-1.71692 1.32104,-1.05692 1.45312,-1.45313 0.66036,-2.11313 -1.05556,-3.96032 0.5293,-5.9414 0.92449,-1.32071 3.30179,-1.32067 3.83008,-2.77344 0.39622,-0.79244 -0.39621,-1.98175 0,-2.90625 0.52828,-1.05658 2.37749,-0.66145 3.16992,-1.58594 0.92449,-0.79243 1.98128,-3.43293 3.16992,-4.35742 0.66036,-0.52829 1.31909,0.92517 1.45117,-0.92383 0,-0.66035 -1.9812,0.66037 -2.11328,0 -0.26414,-0.66035 0.79323,-1.18853 1.18945,-1.7168 0,0 0.26368,0.13206 0.26368,0 0,-0.26414 -0.52782,-0.7937 -0.26368,-0.92578 3.69799,-1.05657 2.1131,3.96233 6.60352,-0.66015 -0.13208,0 -0.13281,-0.52721 -0.13281,-2.24414 -0.13206,-1.849 1.19018,-3.56703 1.32226,-5.41602 0,-0.26415 -0.52929,-0.26394 -0.52929,-0.66016 -0.13206,-0.66035 0.13236,-1.32009 0.39648,-1.98046 l 1.84961,-3.03907 c 0.13206,-0.79243 0.26395,-3.6966 0.66015,-4.62109 1.05659,-2.11316 3.69762,-3.69767 5.1504,-6.20703 0.5283,-0.92449 -7.39554,-1.84988 -7.92383,-2.2461 -0.39622,-0.39621 -0.13309,-1.18777 -0.5293,-1.58398 -0.66035,-0.52828 -4.88625,1.18722 -5.15039,0.79102 -0.13206,-0.39622 0.39697,-0.92336 0.13281,-1.1875 -3.96212,-3.56591 -1.32139,1.8478 -2.90625,0.13085 -1.32071,-1.3207 -1.98056,-4.35723 -3.03711,-5.01757 -0.39622,-0.39621 -1.18898,-2.8e-4 -1.45312,-0.39649 -0.66035,-0.26416 -1.45366,-0.66015 -2.2461,-0.66015 -0.66035,0 -1.3189,0.66015 -2.11132,0.66015 -0.13208,0.13205 -7.4e-4,-0.39722 -0.13282,-0.52929 -0.52828,-0.26414 -1.05642,-0.52688 -1.71679,-0.79102 -0.3962,-0.13207 -0.79324,-0.26563 -1.18946,-0.26563 -0.92449,-0.13207 -1.84818,0.79271 -2.64062,0.39649 -0.66035,-0.26415 -0.13308,-1.45217 -0.5293,-1.98047 -0.26414,-0.39621 -0.92409,-0.13233 -1.32031,-0.39648 -0.13207,-0.13206 0.5293,-0.39531 0.5293,-0.52735 -0.13208,-0.26417 -0.26514,-0.52808 -0.5293,-0.66015 -0.26413,-0.13207 -0.66089,0.39572 -0.79297,0.26367 -0.52829,-0.39622 -0.65921,-1.18973 -1.1875,-1.58594 -0.9245,-0.39622 -2.24518,0.001 -2.77344,-0.79101 -0.5283,-0.52828 0.52735,-1.32207 0.52735,-1.98243 -0.13205,-0.52827 -0.92383,-0.65921 -0.92383,-1.1875 0,-0.66034 0.52808,-1.18849 0.66016,-1.71679 0.13206,-0.39621 0.79343,-0.7925 0.52929,-1.05664 -0.92451,-0.79241 -1.71809,1.58454 -2.64258,2.37695 -1.84899,1.71693 -6.20676,0.65962 -5.81054,-0.13281 0.39621,-0.66034 1.05664,-1.05645 1.05664,-1.7168 0,-0.39622 -1.05785,-0.39555 -0.92578,-0.92383 0,-0.79243 1.05664,-1.45366 1.05664,-2.24609 -0.26414,-2.24519 -5.67922,-0.92391 -5.94336,-1.98047 -0.13206,-0.52829 0.26487,-1.1885 0.13281,-1.7168 -0.39622,-2.11313 -3.30132,-6.3e-4 -4.09375,-1.84961 -0.52827,-1.05659 0.2638,-4.09353 -1.45313,-4.7539 -0.79242,-0.39622 -1.45319,1.45312 -2.50976,1.45312 -2.90557,0 -3.03664,-5.02014 -3.30078,-6.86915 z m 40.28124,31.16976 c -0.66035,-0.26416 -1.45278,-0.66037 -2.24522,-0.66037 -0.66035,0 -1.3207,0.66037 -2.11312,0.66037 -0.13208,0.13205 0,-0.39622 -0.13208,-0.52829 -0.52828,-0.26414 -1.05657,-0.5283 -1.71694,-0.79244 l 0.13208,-0.52827 c 2.90557,0.26414 -1.05657,-4.88664 -0.66035,-6.07528 0.52827,-1.45277 3.16971,-6.33942 4.62248,-3.83007 -0.13207,0.66037 -0.26414,1.32071 0,2.3773 0.66037,2.77349 3.83006,3.03763 4.09423,3.43384 1.84898,2.24521 -3.43386,3.30178 -1.98108,5.94321 z m 3.30177,101.56272 c 1.05657,0 1.98108,-0.92451 1.98108,-1.849 0,-0.92451 -0.92451,-1.71694 -1.98108,-1.71694 -1.05657,0 -1.98106,0.79243 -1.98106,1.71694 0,0.92449 0.92449,1.849 1.98106,1.849 1.05657,0 -1.05657,0 0,0 z m 61.0166,-115.56256 c -0.80141,-0.17809 0.0929,1.68238 1.56054,3.44142 v -2.91017 c -0.42691,-0.30928 -1.0317,-0.42549 -1.56054,-0.53125 z m -2.59766,46.88283 c -0.55511,0.0268 -1.06686,0.10248 -1.49609,0.26757 -0.52828,0.26414 -0.26469,1.18704 -0.79297,1.45117 -0.52828,0.39622 -1.18852,-0.2634 -1.7168,0.13282 -0.39623,0.13206 0.13328,0.79252 -0.13086,1.05664 -0.13207,0.1321 -4.62405,1.32078 -5.15234,1.05664 -0.26414,-0.26415 4.7e-4,-0.9253 -0.26367,-1.18945 -0.13208,-0.26415 -0.79176,-0.26323 -0.92383,-0.52735 -0.13207,-0.26416 0.65942,-0.13234 0.52734,-0.39648 -0.52828,-1.71692 -4.22665,0.39568 -5.2832,-0.79297 0,0 0.26562,-0.13159 0.26562,-0.26367 -0.79244,-0.52829 -10e-4,1.71806 -0.26562,2.64258 0,0.52828 -2.50908,3.56512 -3.43359,2.64062 -0.52829,-0.52827 0.9255,-1.32132 0.52929,-1.84961 -0.13208,-0.13208 -0.52884,0.39649 -0.79297,0.39649 -0.26416,0 -0.66091,-0.13235 -0.79296,-0.39649 -0.26418,-0.39622 0.66034,-0.92484 0,-1.45312 -0.52829,-0.39621 -0.79203,-1.05618 -1.32032,-1.32032 -0.39622,-0.26414 -0.92483,0.39576 -1.45312,0.26367 -0.26414,-0.26413 4.7e-4,-0.92336 -0.26367,-1.1875 -0.66035,-0.52828 -0.52749,1.84787 -2.64063,1.1875 -0.13206,-0.13205 -0.26438,-0.13085 -0.39648,-0.13085 v 0.13085 c 0,0.92452 1.71578,1.18904 1.1875,2.50977 -0.13206,0.26414 -0.65894,0.1316 -0.79102,0.26367 -0.13206,0.39621 -0.52956,1.45393 -0.92578,2.64258 l 0.66016,1.45313 v 1.58398 c 1.32069,0.13207 3.43433,0.39648 3.5664,0.39648 0.26415,0.26414 -0.39501,0.65968 -0.13086,0.92382 0.66036,0.79243 1.45245,1.3206 2.37696,1.71681 2.11314,1.05659 2.50814,-2.50829 3.96093,-2.24414 2.77349,0.39621 -0.1315,1.84793 0.79297,2.24414 2.11314,1.05659 0.26382,-0.26413 2.37696,0 1.05656,0.13208 2.11344,2.90738 4.22656,1.71875 l 1.71679,-3.56641 c 1.05657,-0.79243 5.67853,-0.26442 6.86719,-0.39648 1.46656,-0.0978 2.71654,-1.06131 4.07031,-1.55664 v -9.38478 c -1.28229,0.10912 -2.8393,-0.0872 -4.1582,-0.0234 z m -15.09961,13.20983 c -0.13204,0.5283 0,1.18864 -0.26412,1.71693 -0.13208,0.52829 -0.52829,0.92451 -0.79243,1.45278 0,0.26414 2.50935,2.11314 0.92451,2.64144 -2.77351,0.66033 -1.84902,-3.16971 -4.2263,-1.45279 -1.84898,1.32069 0.5283,2.77348 0.79243,3.43383 0.13208,0.5283 -0.66034,0.92451 -0.66034,1.4528 0.13205,0.52828 0.66034,0.79242 0.92448,1.18864 0.13208,0.52829 -0.92448,1.05657 -1.45277,0.79243 -0.92451,-0.5283 -0.39621,-2.64144 -1.45278,-2.7735 -3.56593,-0.66037 -1.849,1.98107 -3.96214,1.32071 -3.43385,-0.79243 -1.32071,-3.43385 -3.03764,-3.698 -2.24521,-0.39622 -0.79243,3.16972 -0.79243,3.43386 -0.52827,2.37727 -3.69798,3.1697 -3.69798,6.07527 0,1.32072 2.64141,0.79243 0.39621,2.50935 -0.79243,0.66036 -1.05657,-1.58484 -1.58486,-2.2452 -0.39622,-0.39621 -1.32071,-0.13208 -1.45279,-0.66037 -0.13206,-0.52828 0.79244,-0.92449 0.9245,-1.45277 0,-0.26415 -0.26414,-0.52829 -0.39622,-0.52829 -1.45277,-0.52829 -3.56591,-0.92451 -4.4904,-2.64142 -0.13208,-0.52829 0.26414,-1.05657 0.26414,-1.45278 0,-0.79243 0.13206,-1.58487 -0.13208,-2.37728 -0.13206,-0.13208 -0.3962,0.13206 -0.66035,0.26414 -0.66036,0.52827 -1.18865,1.05657 -1.849,1.58484 -0.66034,0.5283 -1.71691,0.79244 -1.98105,1.58487 -0.13208,0.52827 1.05655,0.79243 0.92449,1.45278 0,0.66034 -3.698,4.49042 -3.83006,4.49042 -1.18865,0 -2.11314,-1.58486 -3.30179,-1.32072 -1.71692,0.39621 -5.28283,3.03764 -6.60356,0.66037 -0.52829,-0.79244 -0.52829,-1.71693 -1.18864,-2.3773 -0.13207,-0.26414 -0.66036,0.52829 -0.79242,0.26416 -0.13208,-0.39622 0.52828,-1.05659 0.26414,-1.4528 -0.13208,-0.3962 -0.92451,0 -1.18865,-0.26413 -0.79241,-1.32071 1.05657,-1.18864 0.92451,-1.98106 -0.13208,-0.66037 -0.92451,-0.92451 -0.92451,-1.58486 -0.13207,-0.39622 0.92451,-1.18865 0.39622,-1.32071 -1.71693,-0.79243 -5.41491,-0.79243 -6.60356,1.05655 -0.26414,0.26416 -0.13208,0.5283 -0.13208,0.92451 0.13208,0.26414 0.79243,0.52829 0.66037,0.79243 -0.79243,1.58485 -2.64143,2.24522 -4.22628,1.849 -0.13207,0 0.52828,-0.26415 0.52828,-0.52829 0,-1.71692 1.32071,-1.05657 1.45279,-1.45278 0.66036,-2.11313 -1.05657,-3.96213 0.52829,-5.94321 0.92449,-1.32071 3.30177,-1.32071 3.83006,-2.77348 0.39622,-0.79244 -0.39621,-1.98107 0,-2.90557 0.52828,-1.05658 2.37728,-0.66037 3.16971,-1.58486 0.92449,-0.79243 1.98106,-3.43385 3.1697,-4.35834 0.66036,-0.52829 1.32072,0.92449 1.4528,-0.92451 0,-0.66035 -1.98108,0.66037 -2.11316,0 -0.26414,-0.66035 0.79243,-1.18865 1.18865,-1.71692 0,0 0.26414,0.13206 0.26414,0 0,-0.26414 -0.52828,-0.79242 -0.26414,-0.9245 3.69799,-1.05657 2.11314,3.96213 6.60356,-0.66035 0.13207,0 0.39621,-0.26414 0.52829,-0.52829 l 0.26414,-0.26414 c 0.26412,-0.13208 0.52829,-0.13208 0.79241,0.13208 0.13208,0.13206 -0.79241,0.26413 -0.66034,0.52829 0.39622,0.79241 6.47147,-0.66037 6.86769,-0.66037 2.64143,-0.13208 0.26413,2.37728 3.56592,0.66037 0.13208,-0.13208 -0.26414,-0.79245 0,-0.92451 0.3962,-0.26415 1.849,-0.39622 1.32071,-0.52829 -0.79242,-0.13208 -1.58485,0.13207 -2.37728,0 -0.3962,-0.13208 1.84899,-3.69799 3.83006,-1.71693 0.26414,0.26416 -0.39621,0.79243 -0.26413,1.18865 0.13207,0.26414 0.66035,0.3962 0.92449,0.26414 0.26414,-0.13208 -0.13208,-1.05657 0,-0.79243 0.52829,0.26414 0.52829,1.18864 1.05658,1.45278 0,0 4.35834,-0.26414 4.49042,-0.26414 1.32069,0.26414 2.2452,1.58487 3.43383,2.24522 v 0.13206 c 0,0.92451 1.71693,1.18863 1.18865,2.50936 -0.13206,0.26414 -0.66035,0.13207 -0.79243,0.26414 -0.39622,0.66035 -1.71691,5.41491 -1.45277,5.54698 0.26414,0.13207 4.62249,0.5283 4.75456,0.5283 0.26415,0.26414 -0.39622,0.66035 -0.13207,0.92449 0.66036,0.79243 1.45277,1.32071 2.37728,1.71692 2.11314,1.05659 2.50934,-2.50935 3.96213,-2.2452 0.39621,0 0.66037,0.13206 0.92451,0.26414 l -0.1321,1.18863 c -0.13204,0.39622 -0.26412,0.66036 0,0.79243 z M 441.08873,472.66352 c -0.66035,0.13207 -1.3207,0.13207 -1.98106,0.52828 -0.52829,0.39621 -0.66037,1.3207 -1.18863,1.849 -5.67908,5.15077 3.43383,3.83006 3.16969,-2.37728 z m -1.71692,-71.4505 c -0.66035,1.05657 -2.50936,2.11314 -2.77349,2.90555 -0.13208,0.66036 -0.26414,4.35834 -1.98107,4.35834 -0.9245,-0.13204 -0.79241,-1.58483 -1.4528,-2.24518 -0.79241,-0.5283 0.26417,2.24518 -0.52826,2.64143 -0.39623,0.13205 -0.92451,-0.52829 -1.18865,-0.26415 -0.92449,0.52829 -1.05657,2.37727 -2.11314,2.37727 -0.92449,0 -1.71692,-1.58486 -1.18864,-2.37727 0.52829,-0.92451 2.77351,0.66035 3.16972,-0.39622 0.3962,-0.92451 -1.84901,-1.05657 -2.24523,-2.11314 -0.13206,-0.39622 0.92451,-0.26414 1.18865,-0.52828 0.13207,-0.13207 -0.39622,0 -0.39622,-0.13207 -0.26414,-0.5283 -0.39621,-1.05659 -0.26414,-1.58485 1.18865,-3.30179 2.11314,-0.26415 3.96213,0.13206 0.13208,0 -0.66034,-1.98106 -0.26413,-2.37728 1.32071,-1.58486 1.32071,-0.13207 2.64142,-0.26414 0.13206,-0.13207 0.13206,-0.52829 0.26414,-0.52829 0.79243,-0.66035 1.58486,-1.71692 2.50936,-1.58485 0.66035,0.13207 0.39621,1.32071 0.66035,1.98107 z m -24.73728,54.84904 c 0.39622,0.5283 0.92451,0.9245 1.4528,0.66035 0.79243,-0.39622 1.05657,-1.71692 1.84899,-2.11312 0.79245,-0.52828 1.71694,0.66035 2.50935,0.52827 0.9245,0 1.58488,-0.66035 2.3773,-0.52827 0.92449,0.13206 1.45277,1.05657 2.2452,1.32069 0.39621,0.26417 1.18863,-0.26412 1.32072,0.13208 0.52828,0.9245 0.79242,2.24521 0.52828,3.30178 0,0.39622 -0.52828,0.52829 -0.52828,0.79243 1.45277,5.67905 0.79242,-1.71692 2.37727,3.30177 0.52829,1.45279 -2.90556,3.43387 -2.90556,3.43387 2.2452,-0.52829 4.6225,-2.24522 4.22628,3.03762 -0.52829,5.15078 -4.22628,2.37729 -5.28285,3.56593 -0.92449,0.92448 -0.26415,3.03764 -2.64143,2.64142 -0.52829,0 -0.92449,-0.52828 -1.32071,-0.92451 l -0.52828,-0.66035 c -1.98107,-1.18863 0.79243,1.849 -3.69798,0.26414 -0.66037,-0.13206 0.26413,-1.3207 0.52827,-1.98106 0.13207,-0.92451 -1.18864,-0.66034 -1.45278,-1.18864 -0.66037,-1.32072 0,-4.49043 -1.45279,-4.22629 -5.67906,0.79243 1.58486,3.43386 -4.49043,3.96216 -1.98105,0.13206 -7.13182,-6.73564 -6.60354,-7.39599 0.13207,0 5.28285,-1.32073 5.28285,-1.32073 0.26413,-0.79241 -1.45279,-1.18863 -1.58487,-1.98104 -0.26413,-0.79244 3.16973,0.26413 3.56593,0 2.11314,-1.32073 1.32071,-4.62251 4.22626,-4.62251 z m 57.49093,-57.62254 c -1.71692,3.43385 -9.64121,-3.96214 -4.0942,-4.35835 0.79241,0 1.58484,0.9245 1.58484,1.849 0.13208,0.52829 -1.58484,0.39621 -1.3207,0.79243 0.39621,0.79243 1.58484,0.79243 2.37727,1.05655 0.39622,0.26417 0.92451,0.39622 1.45279,0.66037 z m -21.5276,1.18863 c 0.79242,0.39622 2.50936,1.18865 2.64143,2.11316 0,0.66035 -1.84901,1.84899 -1.32072,1.45277 0.79243,-0.52828 1.05657,-2.11314 1.98106,-1.98106 0.79243,0.26414 -0.13206,1.98106 0.5283,2.50934 0.52827,0.39621 0.79243,-1.05656 1.32072,-1.18863 1.98105,-0.52828 6.47147,0.26415 9.1129,0.66035 1.05657,0.13208 2.50934,-0.79242 3.16971,0 0.66035,0.66037 -1.05659,1.32071 -1.45279,2.11314 -0.26414,0.79243 0,1.58486 -0.26414,2.37728 -0.26414,0.66037 -8.58463,5.67906 -10.16947,6.86771 -2.64143,1.98106 1.18864,-0.26415 2.50933,0.79243 0.52829,0.26412 -0.66035,0.79242 -1.18863,1.18863 -0.39622,0.39622 -0.66036,1.05657 -1.3207,1.18865 -0.26416,0 0,-0.92451 -0.26416,-0.92451 -0.52828,-0.13206 -0.9245,0.39622 -1.32071,0.52829 -0.92449,0.39622 -1.05656,-0.66035 -1.45277,0.26414 -1.05659,2.37729 1.45277,3.16971 2.11314,2.37729 0.13206,-0.26415 -0.5283,-0.66036 -0.26416,-0.66036 0.66037,-0.13207 1.32071,0.39621 2.11314,0.39621 1.45279,-0.13206 3.30179,-1.71692 5.15078,-1.32072 0.9245,0.13207 1.71693,1.05658 2.64143,1.32072 2.24521,0.66036 9.64119,0.52829 10.82983,3.16971 0.26414,0.79243 0.39622,1.58485 0.13207,2.37728 0,0 -3.03764,3.03763 -3.03764,3.03763 -0.39621,0.52829 -0.66035,1.18865 -0.79241,1.849 -0.13208,0.26414 0.13206,0.52829 0,0.66036 -1.05657,1.98107 -6.60358,9.77326 -8.3205,9.90533 -2.64142,0.26415 -3.56591,-1.05656 -5.81113,0.66036 -0.39621,0.26414 0.79242,0.39622 1.18865,0.26414 1.05657,-0.13207 1.98106,-0.79243 2.90556,-0.9245 1.849,-0.13207 0.39623,1.18866 0.52827,1.58486 0.39622,0.92449 2.11316,1.18864 1.98108,2.11312 -0.39621,2.90557 -3.16971,0.39622 -3.96212,0.52829 -4.09422,0.66037 3.30177,2.37728 -5.28285,1.71694 -0.13208,0 -0.13208,1.45277 0,1.45277 0.9245,0.39623 -0.13208,-0.39621 0.79243,-0.26413 1.05655,0.26413 3.30177,1.98106 4.49042,1.18863 0.52827,-0.3962 0.66034,-1.32071 1.18863,-1.58485 0.26414,-0.13208 5.28283,3.56592 5.81112,4.0942 0.92451,0.66037 1.32071,3.96216 2.24522,5.01871 0.52828,0.52829 1.32071,0.66036 1.71692,1.18865 0.13208,0.26414 -0.13206,0.52828 -0.13206,0.92449 -0.13207,0.79243 -0.13207,1.71694 -0.13207,2.50936 0.13207,2.37728 1.05657,12.15053 1.849,14.13162 0.13206,0.26414 0.39621,-0.52829 0.66034,-0.39622 0.52829,0.13207 0.9245,0.79242 1.45278,1.05656 2.37729,1.45278 1.849,0.26414 4.09422,3.03765 0.79242,0.92449 0.39621,2.50935 1.05655,3.56592 0.66036,1.45277 2.50937,0.13206 2.50937,2.77348 0,0.79243 -1.4528,0.79243 -1.58486,1.58486 -0.52829,2.11313 1.98106,5.15078 2.50936,6.99976 0.66034,2.50936 -1.45279,-1.18863 -1.58485,1.58488 0,0.66034 4.75456,5.67905 2.37728,8.1884 -1.849,1.84899 -2.64143,-0.26415 -3.96216,3.03762 -0.13206,0.39622 0.92451,-0.13205 1.18865,0.13208 0.52829,0.39621 0.66037,1.18864 1.05658,1.58486 0.3962,0.39622 1.05656,1.05657 1.45277,0.79243 2.64144,-1.71694 0.66037,-3.43385 3.43385,-3.03763 4.49042,0.66034 11.75435,2.64142 10.43362,9.77325 -0.39621,2.24523 -3.43384,8.18842 -5.67905,8.98084 -0.79244,0.26415 -1.98107,-1.32071 -2.24521,-0.66036 -1.18863,2.3773 5.01871,1.71694 -0.26414,3.16971 -0.39622,0.13208 -0.66036,-0.13206 -1.05657,-0.3962 -0.13206,0 -0.13206,-0.26415 -0.26414,-0.26415 -1.05658,0.13207 -2.64143,-0.13206 -3.16971,0.66035 -0.39623,0.79243 1.98106,-0.26414 2.50934,0.39622 0.52829,0.52829 0.13208,1.58484 -0.26414,2.24521 -1.05657,1.71693 -3.96212,0.52828 -5.41491,1.05657 -0.39621,0.13207 -1.45278,0.52828 -1.05657,0.79242 0.13206,0 3.96213,-1.18863 3.83005,0.52829 -0.13205,0.66036 -1.58485,-0.13207 -2.11312,0.26414 -0.39622,0.39622 1.05657,1.05657 1.58486,0.79243 0.26412,-0.26414 0.26412,-1.05657 0.66034,-1.05657 0.52829,-0.13207 1.05658,0.39622 1.58486,0.79243 1.849,1.71693 -3.83006,0.79243 0,1.45279 1.849,0.26414 3.83006,-1.18865 5.81113,-0.39622 0.52829,0.13206 -0.79243,0.79243 -0.92451,1.3207 -0.26414,0.9245 -0.13206,1.84901 -0.26414,2.90557 -0.3962,1.32072 -2.77348,0.79243 -4.0942,1.4528 -0.52828,0.39621 -0.13206,1.71691 -0.79242,1.98106 -2.37728,0.79242 -1.18865,-1.32072 -2.64143,-0.39622 -1.45277,0.9245 -2.77349,0.52828 -4.22627,1.18864 -0.66036,0.26414 -0.9245,1.32072 -1.71692,1.32072 -1.18865,0 -3.30179,-2.24522 -4.49042,-2.50936 -0.92451,-0.13207 -7.52806,1.45278 -7.92428,0 -0.13208,-0.66035 1.71694,-0.13207 0.39622,-1.05658 -0.79243,-0.52826 -0.39622,0.66037 -0.66036,1.05658 -0.26414,0.13207 -0.66035,-0.13207 -0.79243,-0.39621 0,-0.3962 0.92449,-0.79242 0.52829,-0.79242 -0.39621,-0.13207 -0.79243,0.79242 -1.18864,0.66034 -0.39622,-0.13206 0.39621,-0.79241 0.13207,-1.18863 -0.9245,-1.18865 -0.39621,1.18863 -0.79243,1.05657 -1.58486,-0.52828 -2.77349,-3.16971 -3.16971,-2.77349 -0.52827,0.66035 1.05657,1.58483 0.9245,2.37726 -0.13207,1.32072 -7.52805,-0.39622 -7.79219,0 -0.39622,0.66037 0.92449,1.58486 0.79241,2.37729 -0.13206,0.39622 -0.79241,-0.13207 -1.18863,-0.13207 0,0 -0.13207,0 -0.13207,0 -0.66036,-0.39622 -2.7735,-1.84899 -3.43384,-1.58485 -0.79244,0.39621 -0.52829,1.58485 -0.92451,2.2452 -0.26415,0.26415 0.26414,-0.79243 0.13207,-1.18863 -0.26414,-0.66036 -0.9245,-1.18865 -1.58485,-1.71694 -1.71694,-1.71691 -6.73564,-2.90556 -9.11291,-1.98106 0,0 -1.45279,6.33943 -3.43385,7.26392 -1.58485,0.66034 -4.35836,-3.16972 -5.41493,-3.698 -0.66035,-0.39621 1.32073,1.18865 -0.3962,0.79243 -1.58485,-0.39621 -3.83006,-1.98106 -5.67905,-1.45278 -0.66038,0.13207 -0.39624,1.32071 -0.92451,1.58485 -0.79243,0.26415 -1.71692,-0.26414 -2.64143,-0.26414 -0.13207,0 -0.26414,0 -0.39621,0.13207 -0.26414,0.66036 -1.84899,3.96213 -2.37728,3.96213 -0.79242,-0.13208 -0.3962,-1.84899 -0.9245,-2.50934 -0.79243,-1.32072 -3.96214,-0.39622 -3.96214,-1.849 0,-0.9245 5.28285,-1.18863 5.41493,-1.18863 0.52828,-0.13208 1.05656,-0.66037 1.45277,-1.18867 0.26414,-0.13204 0,-0.66033 0.26414,-0.79241 0.26415,-0.26414 0.79245,0.13208 1.05658,0 0.9245,-0.79243 1.18864,-1.98106 2.11314,-2.64142 0.39622,-0.26415 1.05656,0.26414 1.45277,0.13206 0.39622,-0.26414 0.26416,-0.79243 0.66037,-1.05657 0.66036,-0.66034 1.84899,-0.79241 2.50936,-1.58484 0.39621,-0.52828 0.26414,-3.56593 1.18863,-3.96214 0.52828,-0.13207 1.05657,0.9245 1.58485,1.05657 3.03763,0.26413 -0.52828,-4.35835 6.86769,-3.03764 2.50936,0.3962 5.81115,3.83007 8.3205,1.849 0.79242,-0.66037 0.52829,-1.98106 0.92449,-2.77349 0.13207,-0.26414 6.47148,-4.22628 7.26392,-5.15077 0.79243,-0.92451 -3.43384,1.84898 -3.96213,2.24521 -0.66037,0.26413 -1.32072,0.3962 -1.98108,0.52827 -0.3962,0 -0.66035,-0.66036 -1.05657,-0.52827 -3.30177,0.92448 -2.50935,3.69799 -6.47148,1.45277 -1.32071,-0.9245 -1.05658,-3.1697 -2.24522,-4.35834 -1.05656,-1.05658 -3.03761,1.3207 -4.35834,0.66036 -0.26415,-0.13208 -0.52829,-4.2263 -0.66035,-4.62251 -0.13208,-0.26413 -0.26414,0.52829 -0.52828,0.52829 -0.92451,0.13209 0.26414,-0.92449 -2.90557,0 -0.39621,0 -0.26415,0.79243 -0.52829,1.05657 -0.79242,0.26415 -1.84899,0.52829 -2.64143,0.26415 -0.66034,-0.13207 -1.84899,-0.9245 -1.58485,-1.4528 0.39622,-0.79241 1.71692,-0.26412 2.50935,-0.39621 0.39622,-0.13206 -3.30178,-0.26413 -3.698,-0.79242 -0.52827,-0.79243 -0.26412,-1.84898 -0.26412,-2.77349 0,-2.64142 4.88663,-1.18863 5.54697,-1.45279 0.79243,-0.26414 0.92451,-1.58484 1.849,-1.71692 0.66036,0 1.32073,0.66037 1.98108,0.52829 2.11313,-0.52829 6.33942,-4.09422 7.13184,-5.9432 0.26413,-0.52829 -0.26416,-5.67907 -1.05657,-6.4715 -2.24521,-2.77349 -4.75456,5.15079 -5.67907,-0.26414 -0.26414,-0.92449 2.50936,-1.05657 4.22628,-2.37728 0.26414,-0.39621 0.13208,-1.05658 0.39622,-1.45278 0.26413,-0.39622 0.52829,-0.66035 0.79243,-0.79243 0.52829,-0.3962 1.05655,-0.52828 1.45277,-0.66034 0.92451,0 1.71692,0.3962 3.56594,-0.26415 0.26414,-0.13207 -0.52829,-1.05657 -0.13208,-0.9245 0.92449,0.13206 1.45279,1.18865 2.37726,1.32071 1.84902,0.26414 2.24522,-1.45278 3.56594,-0.26414 0.66036,0.66034 0.92451,2.64142 1.71693,2.11313 0.79243,-0.52828 -0.66036,-1.98105 -0.39622,-2.90556 0.13206,-0.52829 2.50934,-0.26414 4.22628,1.84899 0.39622,0.39623 -1.05657,0 -1.58486,-0.26414 -1.18865,-0.66034 -1.71692,-2.64142 -1.45277,-4.0942 0.13206,-0.79242 0.92448,-1.45277 1.58485,-1.98107 0.52829,-0.39621 1.849,0 1.71692,-0.66035 -0.26414,-0.79243 -1.849,-0.79243 -2.11314,-1.58486 -1.71692,-3.69799 2.77349,-0.79243 2.77349,-2.37728 0.13208,-0.79242 -0.92449,-0.39622 -0.52827,-1.32071 0.3962,-0.92451 1.58486,-1.58486 1.45278,-2.64142 -0.13207,-1.98108 -1.71694,1.58485 -3.56594,1.71691 -1.18863,0 0.39623,-2.50934 0,-3.56592 -0.26414,-0.52828 -0.92449,1.05658 -1.45277,0.9245 -1.58485,-0.52829 -0.26414,-1.98106 -0.39621,-2.77349 0,0 -1.58485,-3.30177 -1.58485,-3.30177 -0.13208,-1.58486 4.22628,-5.94322 4.35834,-5.94322 0.26415,0.13209 0.13208,0.79243 0.39622,0.66036 1.05657,-0.26414 2.50934,-0.52827 2.7735,-1.45277 0.26413,-0.79244 -1.58487,0 -2.37729,-0.13208 -0.52828,-0.13206 -1.05657,-0.79242 -1.71694,-0.66036 -0.79241,0.26414 -1.18863,1.32073 -1.98106,1.58485 -0.66034,0.26414 -1.45277,-0.26412 -2.11314,-0.13208 -0.79242,0.26417 -1.18863,0.92451 -1.84899,1.18865 -0.26413,0.13208 -0.66036,0.13208 -0.79243,-0.13206 -0.13207,-0.3962 0.66036,-1.05659 0.26414,-1.18863 -0.39621,-0.13208 -0.26414,0.79243 -0.52829,1.05655 -0.13205,0.13208 -0.39622,0 -0.52826,-0.13207 -0.66037,-0.79244 -0.66037,-2.77348 -2.11314,-3.03762 -1.84902,-0.39622 0.66034,1.84898 -0.66037,3.96212 -0.52828,0.79243 -1.18865,-1.32072 -1.71693,-2.11314 -3.83006,-5.01871 0.13207,0.79242 -5.01869,-2.2452 -1.32072,-0.79243 1.84898,-0.13207 1.71692,-0.79243 -0.13207,-3.03763 0.39622,-2.77351 2.2452,-4.88663 3.43387,-3.83007 -2.37727,0.66035 1.84901,-3.16971 0.39621,-0.39622 1.3207,-0.39622 1.58486,-0.92449 0.52827,-0.9245 -1.98108,-3.96215 -2.11316,-4.22628 -0.13207,-0.39622 0.66036,-0.39622 0.79243,-0.79242 0.39622,-0.92451 0,-2.11315 0.39622,-3.16972 0.52829,-1.18865 1.58485,0.13207 2.77349,0.66035 4.35836,1.98108 -2.2452,-1.18863 -2.2452,-1.45279 -0.39621,-0.79243 0,-1.84898 0.13206,-2.90555 0,-0.66036 0.5283,-1.45279 0.13208,-1.98108 -0.13208,-0.13206 -5.41493,2.77351 -5.81114,3.16971 -1.05656,0.92449 0.66037,2.77351 0.39621,4.22628 -0.13206,0.52829 -1.18863,0.39622 -1.58484,0.79243 -0.26414,0.26415 -0.52829,0.66037 -0.52829,1.05657 -0.13207,0.39622 0.13207,0.92449 0,1.18865 -0.39622,1.05655 -1.45278,1.58484 -1.84899,2.64141 -0.13208,0.26416 0.66034,0.79244 0.39621,0.9245 -0.9245,0.52829 -2.11313,0.92451 -3.1697,0.52829 -0.79244,-0.39622 1.05657,-1.45279 1.45278,-2.11314 0.79242,-1.05658 0.52828,-2.77349 1.32071,-3.83006 0,0 2.77349,-2.37728 2.77349,-2.37728 -0.26414,-0.66036 -1.71694,0.26414 -1.98107,-0.39622 -0.26413,-0.52829 3.56592,-2.77349 1.71693,-3.16971 -0.79243,-0.26414 -1.18864,1.71691 -1.84901,1.32071 -0.79242,-0.66035 1.84901,-1.18863 2.37729,-2.11312 0.52828,-1.05659 0.13206,-3.43387 0.52828,-4.35836 0.26415,-0.79243 0.92451,-1.58486 1.58485,-1.71692 0.66037,-0.13208 1.849,1.32071 1.849,0.66035 0,-0.66035 -1.45279,-0.66035 -1.849,-1.32071 -0.92448,-1.84901 4.49043,-2.77349 4.62251,-2.77349 0.3962,-0.39622 -1.71694,0.13206 -1.71694,-0.39622 0,-0.79244 1.32072,-0.92449 1.58486,-1.71692 0.26414,-0.39622 -0.79243,0.26414 -1.18865,0.66035 -0.92449,0.66034 -0.79243,0.9245 -1.58484,1.32071 -1.71694,0.92449 -3.30179,2.37728 -4.49042,1.84899 0.13207,0.26415 0.26414,0.39621 0.52828,0.52829 0.13207,0.26414 0.66035,0.52829 0.39621,0.79243 -1.05657,0.92449 -6.33942,2.77348 -7.26391,0.92449 -0.13208,-0.13207 0,-0.52827 0.13206,-0.52827 2.64143,-1.05657 0.52829,2.90555 3.83008,-1.58487 2.11314,-2.77349 -6.20734,-1.3207 -0.26414,-3.30177 0.26414,0.52828 0.52826,1.05657 0.92448,1.45279 0.13208,0.26414 0.39621,0.52828 0.66037,0.66034 -0.26416,-0.3962 -0.52829,-0.9245 -0.66037,-1.58485 -0.13205,-0.3962 0.92451,0 1.32072,0 1.05657,0 2.11314,0.52829 3.03765,0.13206 1.18863,-0.52826 -7.13185,-0.39621 -6.07528,-1.98106 0.79243,-1.05657 4.22626,0.39622 4.49042,-0.13206 0.52827,-1.32071 -3.30177,-2.90556 0.39621,-3.83007 0.9245,-0.26413 1.84899,0.92451 2.90557,0.66034 3.56591,-0.79241 -0.9245,-3.16969 -0.9245,-3.16969 0.39621,-0.92451 2.37727,0.26414 3.03763,-0.52829 0.66037,-0.79242 0.13208,-2.11314 0.13208,-3.1697 0,-0.79243 0.13207,-1.58486 -0.13208,-2.11314 -0.13206,-0.26414 -4.49042,-4.88663 -1.58486,-6.07528 0.66037,-0.39621 0.79243,2.11314 1.58486,1.849 1.05657,-0.26414 -0.39622,-3.30178 1.18864,-2.37729 2.11313,1.18865 2.24521,1.32072 2.24521,1.18865 0.39621,-1.71693 -1.05656,-1.84899 -0.9245,-3.56591 0,-0.66037 1.71693,0.79243 1.98108,0.13204 0.52828,-0.92447 -0.66037,-2.11312 -0.52829,-3.03761 0,-0.39622 0.39621,0.66035 0.79243,0.66035 0.92449,0.39622 2.37728,1.18863 3.03763,0.39622 0.52828,-0.66036 -1.32071,-1.32073 -1.58486,-2.11316 -0.66035,-2.24519 1.32072,-0.52826 1.32072,-0.52826 0.26414,-0.26415 -0.39621,-0.79243 -0.26414,-1.05657 0.26414,-0.13208 0.9245,0.52828 0.9245,0.26414 0,-0.39622 -0.9245,-0.66036 -0.79242,-1.05657 0.13206,-0.92451 0.92448,-1.58486 1.45277,-2.3773 z m -30.18804,75.2247 c 0.26414,0.66035 1.45278,1.32071 0.92451,1.84899 -0.5283,0.79243 -2.11314,0.13207 -2.90556,0.66037 -0.39621,0.3962 1.05656,0.66034 1.05656,1.18863 0.13207,1.05657 -0.5283,2.11314 -0.5283,3.16971 0.13208,0.9245 1.05657,1.45278 1.05657,2.37728 0,0.66035 -1.05657,1.05656 -1.05657,1.849 -0.13206,0.52829 0.92451,1.05657 0.66037,1.58484 -0.39621,0.5283 -1.45278,-0.66035 -1.71692,-0.13206 -0.39622,0.52828 0.66034,1.05657 0.79243,1.71691 0,0.26417 -0.26414,0.52829 -0.26414,0.79243 0.13205,1.71693 0.66034,2.77351 0.13205,4.49043 -0.3962,1.18864 -5.01868,7.92427 -5.81111,8.58462 -0.26416,0.26414 -0.92451,0.39622 -1.05659,0.9245 -0.26414,0.92451 0.13208,1.98108 0,2.90555 0,0.13208 -0.26414,0.13208 -0.26414,0 -0.39621,-0.92447 -0.66035,0.26416 -1.98106,-0.26414 -0.52829,-0.13206 -0.52829,-0.92449 -1.05658,-1.05655 -0.9245,-0.26415 -3.83007,1.18863 -4.49041,0.39622 -0.13207,-0.26416 0.52828,-0.26416 0.52828,-0.5283 0.13206,-0.39621 -0.92449,0.39622 -1.32071,0.26414 -1.98106,-0.13206 -2.64143,-1.18863 -4.49042,-0.52828 -0.26415,0.13207 0.52828,0.66036 0.52828,1.05656 -0.13206,0.66035 -2.50934,1.18865 -2.50934,1.18865 -0.52829,0 -0.79245,-0.79244 -1.32071,-0.66036 -0.92451,0.39622 -1.32072,1.58486 -2.11315,2.11314 -2.77348,1.45279 -1.05657,-2.50934 -3.56591,-2.11314 -0.79243,0.13206 0.66035,1.58486 0.39621,2.24522 -0.39621,0.52828 -1.32071,0.52828 -1.98107,0.92449 -0.39622,0.26414 -0.66036,1.05659 -1.18865,1.18863 -0.26414,0 -0.13206,-0.52827 -0.39622,-0.66034 -0.26414,-0.26415 -0.66034,-0.52829 -1.05655,-0.39621 -0.26416,0.26414 0,1.05655 -0.39622,1.18864 -1.32071,0.13208 -3.69798,-1.4528 -4.4904,-1.32072 -1.0566,0.13208 -1.84902,0.92451 -2.77351,1.05659 -2.64143,0.26413 1.45279,-1.84902 -0.66035,-1.4528 -0.79243,0.26413 -3.96213,0.66035 -4.22628,0.39621 -0.5283,-0.79243 4.49042,-2.2452 5.01871,-3.43385 0.13206,-0.26415 -0.39622,-0.26415 -0.66036,-0.39621 -0.13207,-0.26414 -3.16972,0.39621 -6.99977,0 -0.13208,0 0.26414,-0.13206 1.98106,-0.66036 0.26414,0 0.52827,-0.13207 0.52827,-0.39621 0,-0.13206 -0.39621,-0.26414 -0.26413,-0.3962 1.18863,-1.05659 0.66037,0.66034 2.2452,0 0.79243,-0.26414 3.03765,-0.39622 2.50937,-1.05659 -0.13207,-0.13206 -6.07528,0.66037 -6.33942,0.66037 -1.18864,-0.26415 -2.11315,-2.11315 -1.98107,-3.43386 0.13206,-0.52829 1.18864,0.52829 1.58486,0.26415 0.39621,-0.26415 -0.26414,-0.66037 -0.26414,-1.05658 0.26414,-1.18863 2.37728,-0.52828 3.56592,-0.79242 0.92448,-0.13208 2.11313,0 2.77348,-0.66035 0.5283,-0.39622 -1.3207,-1.32071 -1.98106,-0.9245 -0.13208,0.26414 0.26414,0.79242 0,0.9245 -0.13208,0.13206 -4.0942,-1.849 -4.88663,-2.90557 -0.13208,-0.26416 0.79243,0.39621 1.05657,0.26413 0.26414,-0.13207 0,-0.66033 0.26414,-0.79243 0.66035,-0.3962 2.50935,-0.26412 3.43384,-0.13206 1.18864,0 1.98108,1.18863 3.03765,1.71693 1.05656,0.52829 -1.98108,-2.11314 -1.4528,-3.1697 0.39623,-0.92451 1.98108,-0.26415 2.90557,-0.66037 0.52828,-0.26414 0.52828,-1.05657 1.05657,-1.18864 0.13209,0 8.58464,1.4528 9.50913,0.9245 0.66035,-0.39621 -1.71692,-0.26414 -2.11314,-0.9245 -0.13208,-0.39622 0.39622,-1.05656 0.26414,-1.45277 -0.13206,-0.26416 -2.77348,2.37727 -4.0942,2.2452 -0.26414,-0.13207 0.79243,-0.79243 0.39621,-0.9245 -0.39621,-0.13207 -0.92449,0.39622 -1.45278,0.26414 -0.52828,-0.13207 -0.9245,-0.52829 -1.18863,-0.92449 -0.13208,-0.26414 0.13206,-0.52829 0,-0.66035 0,0 -3.83007,0.79241 -4.35836,0.52827 -0.39622,-0.13206 0.92451,0 1.32071,-0.13206 1.05657,-0.52829 1.84901,-1.18863 2.90557,-1.58485 0.26414,-0.26416 0.79243,0.13205 1.05657,0 0.52828,-0.52829 0.66035,-1.4528 1.32071,-2.11315 0.26415,-0.26414 0.66037,-0.3962 1.05658,-0.52828 0.26414,-0.26414 -0.92451,0 -1.18864,-0.39621 -0.5283,-0.66036 1.18864,-1.18865 1.7169,-1.71694 0.39622,-0.52828 0.66037,-1.18863 1.32071,-1.32071 0.39622,-0.13206 0.5283,0.92451 0.92451,0.79243 1.05657,0 2.11314,-0.39622 3.03765,-0.92449 0.26414,-0.13207 -1.05659,0.13206 -1.05659,-0.26416 0,-0.3962 0.92451,-0.26412 0.92451,-0.66034 -0.13208,-0.39621 -2.77349,0.13208 -5.67905,-0.66035 -2.77351,-0.79243 0,-0.66037 -0.66037,-2.90556 -0.66035,-2.37729 -4.35834,-0.66038 -5.41492,-2.24523 -2.90557,-3.83006 2.50935,-2.24521 2.64143,-2.24521 0.13208,-0.13207 -0.52829,-0.52828 -0.39622,-0.66036 0.5283,-0.92449 1.18865,-1.84897 2.24522,-2.11312 0.92449,-0.26414 1.98106,0.52829 3.03763,0.52829 0.26416,0 0.52828,-0.13209 0.66036,-0.39622 1.71692,-4.09421 -3.16971,-1.05658 -3.43385,-2.24521 -0.26414,-0.52828 1.18864,0 1.58486,-0.39622 0.79242,-0.52828 -0.52829,-1.849 -0.66035,-1.98108 0,-0.92449 1.18863,-2.11312 0.52826,-2.90555 -0.52826,-0.52829 -1.58485,1.45278 -2.11314,0.92451 -0.52828,-0.5283 0.79245,-1.18865 1.05658,-1.84902 0.13208,-0.52828 -1.18864,-0.39622 0,-0.66035 1.18865,-0.26414 7.39598,-0.26414 8.05633,1.45278 0.39622,0.92451 -0.13205,2.37729 0.66037,2.64142 0.79242,0.26414 0.79242,-1.3207 1.45277,-1.71691 1.18865,-0.66036 4.6225,3.30177 4.75457,2.90555 0.39622,-0.9245 -0.9245,-1.98106 -0.79243,-3.03763 0.26414,-1.18864 4.22627,-0.79243 4.22627,-0.92449 1.05658,-0.39622 1.84901,-1.18865 2.50935,-1.98108 0.39622,-0.52828 -1.98106,0 -1.98106,-0.26414 -0.39622,-1.45277 0,0.5283 -1.71693,0.39622 -0.26413,0 0.13208,-0.52829 0.13208,-0.79243 0,-0.13208 0,-0.39622 -0.13208,-0.39622 -0.52827,-0.26412 -3.1697,-0.3962 -2.77349,-1.98106 0.79243,-2.64143 3.43386,0.26414 4.22629,0 0.52828,-0.26414 -1.58486,-1.05657 -1.18864,-1.58485 0.52826,-0.52829 1.58486,0.52828 2.2452,0.39622 0.66035,-0.13208 -0.52828,-1.05659 -0.92451,-1.4528 -0.26414,-0.26414 0.92451,-0.26414 1.05659,-0.66036 0.52827,-2.2452 -5.15079,0 1.71692,-3.16969 0.39622,-0.13208 0.92451,0.26414 1.45279,0.39621 1.849,0.52828 3.96214,0.39622 5.54698,1.45279 0.92451,0.66034 -2.37727,1.98105 -1.849,2.90555 0.5283,0.5283 1.58485,-0.39621 2.24522,-1.05656 0.26414,-0.26416 -0.39622,-1.45279 0.13208,-1.45279 0.79243,0.26414 1.32069,1.32071 1.84898,1.98106 v 0 c -2.90557,0 -2.11314,3.30177 -4.22628,4.6225 -0.39621,0.26414 -3.83005,-0.79242 -3.56591,0 0.13206,0.79243 1.84899,1.18864 1.58484,1.98106 0,0 -5.15076,1.32072 -5.28284,1.32072 -0.52829,0.66036 4.6225,7.52807 6.60356,7.39598 6.07528,-0.52829 -1.18863,-3.1697 4.49042,-3.96213 1.45278,-0.26415 0.79243,2.90557 1.45278,4.22628 0.26414,0.52828 1.58486,0.26414 1.45279,1.18863 -0.26414,0.66036 -1.18865,1.849 -0.52829,1.98108 4.49041,1.58485 1.71693,-1.4528 3.698,-0.26414 l 0.52827,0.66036 c -0.13207,-0.13208 -0.26413,-0.26414 -0.39621,-0.39622 z m 123.61539,-83.24236 c 0.16395,1.58165 1.48603,2.95024 1.30664,0 z m -1.58163,8.22593 c 0.13208,-0.13207 0.13208,-0.13207 0.26415,-0.26413 0.26414,1.3207 0.79242,2.77349 0.13206,4.0942 -1.45278,2.64143 -0.66035,-2.2452 -0.39621,-3.83007 z m 4.81978,-8.22635 c -0.0824,0.25607 -0.009,0.64156 -0.19726,0.83006 -0.13207,0.26412 -0.92504,0.13162 -0.79297,0.26369 4.09422,3.69801 1.45342,0.13234 5.67968,0.39648 0.39622,0 -5.01953,2.3777 -5.01953,2.50977 -0.13206,0.5283 1.71774,0.52809 1.18946,0.66014 -0.26415,0.13208 -0.65968,-0.26414 -0.92383,0 -0.26414,0.13208 0.13133,0.92505 -0.13281,0.79298 -0.66035,-0.13207 -1.05644,-1.58565 -1.7168,-1.18946 -0.9245,0.39623 -0.66069,2.11307 -1.45313,2.77344 -0.52827,0.39623 -2.11328,-0.79122 -2.11328,-0.13085 0,0.39621 0.39675,0.65967 0.79297,0.92381 0.52827,0.26414 1.05618,0.52763 1.32031,0.92383 0.39622,0.66037 -0.26433,2.37892 0.66016,2.37892 1.71692,0.13207 1.05653,-3.96391 2.77344,-4.49219 1.05657,-0.26414 2.64284,5e-5 3.03906,1.05664 0.26412,0.92449 -1.98121,1.18953 -2.11328,2.2461 0,1.18864 0.26274,1.18769 0.79102,0.52734 0.79242,0.79242 4.49117,-0.92303 3.96289,0.26562 -0.39622,0.92449 -1.98101,0.52835 -2.77344,1.05664 -0.66034,0.26414 -1.32179,0.65996 -1.58594,1.32032 -0.13206,0.39621 1.32077,0.13233 1.05664,0.39648 -0.5283,0.66036 -2.50902,0.39582 -2.37695,1.32031 0.26414,0.66036 0.39601,1.3201 0.66015,1.98047 -0.26414,-0.26415 -0.52686,-0.52781 -0.79101,-0.26367 -0.66036,0.26415 -0.79398,1.9802 -1.32227,1.58399 -1.05656,-0.39622 -0.26373,-2.64016 -1.32031,-2.9043 -0.92449,-0.26414 0.13208,1.71735 0,2.50976 -0.26414,0.9245 -1.1875,1.45171 -1.1875,2.24414 -0.13208,0.92451 1.45247,4.35844 2.37695,4.88672 0.52829,0.26415 1.32058,2.8e-4 1.7168,0.39649 0.79242,0.52829 1.71593,2.90603 3.30078,3.5664 0.79243,0.39621 1.58648,0.92308 2.37891,0.79102 0.66037,-0.13208 0.52641,-1.31908 1.05469,-1.45117 0.52829,-0.13205 1.45432,0.39553 1.32226,0.92383 -0.39621,0.92449 -4.75498,2.377 -2.50976,3.43359 1.05657,0.3962 2.11335,0.79223 3.16992,0.66016 0.79241,0 1.58425,-1.71701 1.98047,-1.05664 0.26414,0.79242 -1.98142,1.32206 -1.45313,1.98242 0.52826,0.66034 1.58528,-0.79297 2.50977,-0.79297 1.849,0 1.45272,1.1889 2.77343,0.39648 0.39622,-0.13208 0.52762,-0.66089 0.92383,-0.79297 0.52826,-0.26414 1.45413,0.39622 1.98242,0 0.66036,-0.52828 0.263,-2.24562 1.1875,-2.50976 0.9245,-0.26413 1.05716,1.98094 1.84961,1.7168 1.05657,-0.13207 0.92437,-1.84942 1.7168,-2.50977 0.26414,-0.26415 0.6597,0.52976 0.92383,0.26563 0.13208,-0.13209 3.56619,-4.22786 4.22656,-5.15235 0.13208,-0.26416 -0.39576,-0.52687 -0.26367,-0.79102 0.66034,-2.77348 1.71735,4.22546 2.50977,-1.18946 0.13207,-0.52828 -1.58567,-0.65922 -1.18946,-1.1875 0.66036,-0.66036 2.37871,-5.3e-4 3.03906,-0.79297 0.39622,-0.39621 -1.05784,-0.92484 -0.92578,-1.45312 0.39622,-1.32071 3.96215,-1.58427 3.83008,-1.98047 -0.39622,-0.92451 -2.11301,-1.45246 -1.7168,-2.37695 0.39622,-0.66036 1.58573,0.79128 2.2461,1.1875 0.52828,0.39622 -0.13302,1.71679 0.52734,1.71679 5.54698,0 1.32119,-1.45151 3.56641,-2.90429 0.39622,-0.26414 -0.26462,1.45117 0.26367,1.45117 1.05657,0 -0.13154,-2.24401 0.79297,-3.96094 0.26414,-0.26415 0.52883,0.52734 0.79297,0.52734 0.26415,0 0.26367,-0.39527 0.26367,-0.52734 0.79243,-1.84898 -7e-5,-0.39642 -1.05664,-3.16992 -0.26414,-0.66035 0.52781,-1.84866 0.26367,-2.37695 -0.39622,-0.92451 -1.71604,-1.58599 -1.58398,-2.64258 0.13207,-0.66034 1.45143,0.5291 1.84765,1.18945 0.26414,0.66037 -0.13208,1.58453 0,2.37695 0,0.13208 0.13357,0.26368 0.26563,0.26368 3.30178,-2.24522 -2.37795,-6.33985 0.92383,-6.33985 0.92451,0 -0.26488,1.71736 -0.13282,2.50977 0.26415,1.32073 0.66164,2.50937 0.92578,3.83008 0,0.13207 0.13086,0.26515 0.13086,0.52929 -0.26417,-0.26414 -0.52875,1.71567 0.26368,2.9043 0,0 0.79296,-0.79243 0.79296,0 0,0.52828 -0.79268,1.32058 -0.39648,1.7168 4.35836,4.09423 2.90621,-2.37594 5.67969,1.98242 0.39622,0.52827 1.18844,1.58426 0.66015,1.98047 -0.13208,0.13208 -0.1316,0.13281 -0.26367,0.13281 0.39621,1.3207 0.92465,2.64075 2.11328,0.92383 2.90557,-4.0942 -0.79242,-9.37663 0,-11.75391 0.26415,-0.92449 1.58424,-1.05718 1.98047,-1.84961 0.26414,-0.52828 4.8e-4,-1.18849 -0.26367,-1.71679 0,-0.39621 -0.66136,-0.52881 -0.5293,-0.79297 0.18399,-0.64392 2.28031,-0.98691 3.94336,-2.15039 z m -4.6875,7.83006 c 0,0 -0.13281,0.13162 -0.13281,0.26369 0.13208,-0.13207 0.13355,-0.13086 0.26562,-0.13086 -0.13207,0 -0.13281,-0.13282 -0.13281,-0.13283 z m 66.53906,67.08008 c -0.0426,0.0518 -0.0596,0.0898 -0.10742,0.14453 0.0615,0 0.0899,-0.002 0.10742,-0.0156 z m -3.48437,-7.83398 c -0.60399,-0.0101 -1.12143,0.0707 -1.44336,0.31836 -0.85847,0.66037 -1.1238,0.92483 -1.25586,1.45312 -0.26414,0.66035 1.85034,-9.9e-4 1.98242,0.79102 0.39621,1.849 1.18783,6.60411 -1.18945,4.62305 -0.52829,-0.39621 1.18824,-1.05645 1.32031,-1.7168 0.66034,-4.0942 -2.50915,-3.16991 -4.49023,-3.16991 -0.66036,0 -1.32012,-0.26322 -1.98047,-0.52736 -0.39622,0 -1.71652,-0.52974 -1.32031,-0.26562 0.79245,0.5283 2.24562,0.26497 2.50976,1.18946 1.18866,4.09422 -5.1512,2.64237 -6.33984,3.30273 -0.39621,0.13206 0.39601,0.79054 0.66015,1.05468 2.11314,1.84898 3.30173,0.79298 2.77344,4.62305 -0.13205,0.52827 -1.05738,0.39749 -1.18945,0.92578 -0.13207,0.3962 2.24555,-0.13266 1.45312,1.98047 0,0.13206 -4.6e-4,0.52734 0.26368,0.52734 0.52829,0.13207 1.18926,-0.39575 1.84961,-0.26367 0.66034,0.13207 1.18803,0.79297 1.98046,0.79297 0.26414,0 0.39602,-0.79343 0.66016,-0.52929 0.66037,0.79244 1.4536,1.84895 1.18945,2.77344 -0.13206,0.39622 -0.79204,0.13328 -1.32031,-0.13086 1.05655,0.52829 1.98127,1.32031 3.16992,1.32031 3.30177,-0.13208 0.13207,-2.1136 0,-3.5664 0,-1.18863 2.90439,-0.79232 3.96094,-1.7168 l -0.79102,-1.98047 c -1.18863,-0.66034 -2.64177,-1.05625 -1.45312,-2.37695 0.66035,-0.66037 1.71659,-0.79278 2.37695,-1.45313 0.0479,-0.0547 0.0648,-0.0927 0.10742,-0.14453 v -2.71289 c -0.2391,-0.43118 -0.46379,-0.96335 -0.5039,-1.76562 0,-0.45452 0.25664,-0.82468 0.5039,-1.20508 v -1.42969 c -0.10055,-0.0901 -0.19518,-0.1814 -0.24023,-0.27148 -0.99053,-0.16509 -2.23749,-0.43245 -3.24414,-0.44923 z m 2.74414,-3.82227 c -0.17886,-2.9e-4 -0.32478,0.0877 -0.42383,0.31055 -0.23735,0.23732 0.29191,1.34824 1.16406,2.8125 v -2.83008 c -0.27675,-0.16639 -0.53285,-0.29263 -0.74023,-0.29297 z m -4.27344,-63.25389 c -1.66305,1.16348 -3.75937,1.50646 -3.94336,2.15039 -0.13206,0.26416 0.5293,0.39675 0.5293,0.79297 0.26415,0.5283 0.52781,1.18851 0.26367,1.71679 -0.39623,0.79243 -1.71632,0.92512 -1.98047,1.84961 -0.79242,2.37728 2.90557,7.65971 0,11.75391 -1.18863,1.71692 -1.71707,0.39687 -2.11328,-0.92383 -0.79243,0.13205 -2.11431,-1.05685 -2.64258,-0.39648 0,0 1.58667,5.94249 1.71875,7.52734 0,0.92451 -1.32172,3.30134 -0.52929,4.09375 5.01871,5.01871 3.69887,-3.16851 6.07617,-0.13086 1.71691,2.11312 -1.98094,6.73572 -1.7168,8.7168 0,0.79243 -0.13254,1.71584 0.26367,2.24414 0.39622,0.3962 1.31985,-0.1306 1.58399,0.26562 0.92451,1.4528 0.13262,4.62192 0.79297,5.81055 0.3962,0.66037 0.92362,1.45218 1.58398,1.98047 0.26415,0.13206 0.7937,-4.7e-4 0.92578,0.26367 0.13207,0.13206 -0.39648,0.26517 -0.39648,0.5293 0,0.13207 1.58547,2.24588 1.84961,2.90625 0.26415,0.52827 -0.13328,1.18852 0.13086,1.71679 0.52829,0.66037 1.58499,0.65996 2.11328,1.32032 0.25169,0.29363 0.38922,0.68387 0.5039,1.08789 V 418.1374 c -7.9e-4,10e-4 -10e-4,0.003 -0.002,0.004 -0.30576,0.47172 -0.64662,0.87018 -1.06445,1.05468 -0.0134,0.006 -0.0275,0.01 -0.041,0.0156 -0.0869,0.0352 -0.17611,0.0637 -0.26953,0.0801 -0.0411,0.008 -0.0845,0.008 -0.12695,0.0117 -0.0779,0.006 -0.15565,0.0122 -0.23828,0.004 -0.072,-0.007 -0.14874,-0.0284 -0.22461,-0.0469 -0.0624,-0.0155 -0.12239,-0.025 -0.1875,-0.0488 -0.14717,-0.0535 -0.30071,-0.12421 -0.46289,-0.22461 -0.0495,-0.0248 -0.0862,-0.0571 -0.11328,-0.0957 -0.0822,-0.1159 -0.0687,-0.29114 0.006,-0.51172 0.29717,-0.8791 1.56055,-2.46426 1.56055,-3.75196 0,-0.11579 -0.0472,-0.30751 -0.12305,-0.55664 -0.0754,-0.24791 -0.17883,-0.55188 -0.29101,-0.89257 -1.8e-4,-5.5e-4 1.8e-4,-0.001 0,-0.002 -0.11244,-0.34151 -0.23507,-0.71837 -0.3457,-1.11328 -0.11084,-0.39554 -0.20912,-0.80757 -0.2793,-1.2168 -0.0351,-0.20429 -0.0643,-0.40716 -0.082,-0.60742 -0.12392,-1.40187 0.23841,-2.64387 1.91406,-2.875 0.12342,-0.0176 0.24603,-0.007 0.36914,0.0195 6.5e-4,1.4e-4 10e-4,-1.4e-4 0.002,0 v -15.77343 z m -33.52734,88.12889 c 0,0.92451 0.13308,1.98175 0.5293,2.90625 0.26413,0.52828 3.30078,3.82961 3.30078,4.09375 -0.3962,2.64144 -2.64022,1.32059 -3.96094,1.7168 -0.26414,0 0.92429,0.52884 0.66016,0.79297 -0.13208,0.26414 -1.05591,-4.7e-4 -0.92383,0.26367 0.39621,1.45279 3.30105,2.7e-4 3.69726,0.39648 1.18864,1.45279 -0.66089,5.15121 -0.79297,6.33985 -0.26414,1.849 2.77371,1.1875 3.16993,1.1875 2.50934,0.39621 2.24569,3.43442 3.5664,4.62305 0.79242,0.79242 2.77344,0.52863 2.77344,1.45312 0,4.49043 -3.56619,-2.24615 -4.22656,-3.30273 -0.52828,-0.79242 -0.52862,-2.1116 -1.45313,-2.50781 -1.18863,-0.52828 -2.64022,0.79151 -3.96094,0.52735 -0.52827,0 -1.18971,4.5e-4 -1.58593,-0.26368 -0.39621,-0.13205 -0.39602,-0.92382 -0.66016,-0.92382 -3.03765,0 -0.92392,9.1116 -1.98047,9.50781 -3.30179,1.32073 -3.83061,-4.75424 -4.62304,-6.20703 -0.13207,-0.13207 -0.52808,-0.26367 -0.66016,-0.26367 -15.0561,-0.39622 5.15143,0.39675 -4.75391,0.79297 -0.66036,0 -1.45293,-0.7927 -2.11328,-0.39649 -1.05656,0.52828 -3.96282,4.62265 -2.90625,5.94336 0.13208,0.13206 0.26321,0.26367 0.52735,0.26367 0.26415,0 0.66162,-0.13328 0.92578,0.13086 1.18864,0 2.37791,-0.26267 1.84961,0.26563 -0.39621,0.52829 -0.79324,0.79175 -1.18946,0.92382 0.26413,2.24521 -1.98194,6.47199 -2.24609,7.39649 -0.39622,1.05656 0.52923,3.16992 -0.52734,3.16992 -0.92451,0 -1.71615,-0.39648 -2.64063,-0.39648 -0.26415,0 -0.66211,-4.7e-4 -0.66211,0.26367 -0.13208,0.39622 0.52855,0.79323 0.39649,1.18945 0,0.26414 -0.65896,-0.13253 -0.79102,0.26367 -1.18865,1.98107 3.69802,1.18812 3.83008,3.0371 0.52829,3.30179 -1.98257,3.83043 -4.0957,5.28322 -1.18866,0.79243 1.71846,0.92509 1.32226,1.84961 -0.39622,0.92448 -3.96221,2.11254 -4.88672,1.98046 -0.92449,0 -1.45367,-0.92532 -2.24609,-1.18946 -0.26414,-0.13207 0.26414,0.66091 0,0.79298 -0.79243,0.26415 -1.58574,-0.13255 -2.2461,0.26366 -0.26413,0.13207 0,0.52882 0,0.79298 -0.13207,0.26414 -0.39575,0.65971 -0.26367,0.92383 0.79243,1.4528 3.6984,3.56708 2.50977,6.47265 -0.39622,0.92449 -1.32059,1.58528 -1.7168,2.50977 -0.5283,1.05657 1.18871,0.26348 1.05664,0.92383 l -2.50976,2.24414 c -0.26414,0 -0.52761,-0.5266 -0.92383,-0.39453 -1.18863,0.26414 2.64036,1.05556 2.24414,3.30078 -0.13208,0.52828 -1.05542,0.52836 -1.1875,1.05664 -0.13206,0.39621 1.71559,3.17067 1.84766,3.30273 0.26415,0.26414 1.05664,-0.26536 1.05664,0.13086 0.13208,0.52828 -0.9231,1.05766 -0.79102,1.58594 0.26414,0.79243 1.45145,0.65995 1.84766,1.32031 1.849,3.03763 -4.22575,2.7735 -3.03711,7.66016 0.66037,2.77349 3.82958,3.03738 4.09375,3.43359 1.84898,2.24521 -3.43325,3.30193 -1.98047,5.94335 0.26414,0.39622 1.0569,2.8e-4 1.45312,0.3965 1.05655,0.66033 1.7164,3.69686 3.03711,5.01757 1.58486,1.71694 -1.05587,-3.69676 2.90625,-0.13085 0.26416,0.26414 -0.26487,0.79127 -0.13281,1.1875 0.26414,0.39619 4.49004,-1.31931 5.15039,-0.79103 0.39621,0.39622 0.13308,1.18777 0.5293,1.58399 0.52829,0.39622 8.45213,1.32161 7.92383,2.24609 -1.45278,2.50937 -4.09381,4.09388 -5.1504,6.20703 -0.39619,0.9245 -0.52809,3.82867 -0.66015,4.6211 l -1.84961,3.03906 c -0.26412,0.66037 -0.52854,1.32011 -0.39648,1.98046 0,0.39622 0.52929,0.39601 0.52929,0.66016 -0.13208,1.84899 -1.45432,3.56702 -1.32226,5.41602 0,4.62248 0.53012,0.65947 1.71875,1.58398 0.13208,0.13206 -0.79418,0.26514 -0.66211,0.5293 0.39622,0.79241 6.47292,-0.66211 6.86914,-0.66211 2.64143,-0.13207 0.26266,2.37902 3.56445,0.66211 0.13208,-0.13207 -0.26414,-0.79372 0,-0.92578 0.3962,-0.26415 1.85056,-0.39528 1.32227,-0.52735 -0.79242,-0.13208 -1.58648,0.13207 -2.37891,0 -0.3962,-0.13208 1.84901,-3.69785 3.83008,-1.71678 0.26414,0.26415 -0.39575,0.79127 -0.26367,1.1875 0.13207,0.26414 0.66164,0.39573 0.92578,0.26367 0.26414,-0.13208 -0.13208,-1.05517 0,-0.79103 0.52829,0.26414 0.52835,1.189 1.05664,1.45314 0,0 4.35815,-0.26564 4.49023,-0.26564 1.45277,0.39623 2.37731,1.84869 3.83008,2.37696 2.11314,0.66036 1.98028,-1.71578 2.64063,-1.1875 0.26414,0.26414 -4.7e-4,0.92337 0.26367,1.1875 0.52829,0.13208 1.0569,-0.52781 1.45312,-0.26367 0.52829,0.26414 0.79203,0.9241 1.32032,1.32032 0.66034,0.52828 -0.26418,1.0569 0,1.45311 0.13205,0.26414 0.5288,0.3965 0.79296,0.3965 0.26413,0 0.66089,-0.52857 0.79297,-0.3965 0.39621,0.52829 -1.05758,1.32134 -0.52929,1.84961 0.92451,0.92451 3.43359,-2.11233 3.43359,-2.64061 0.26414,-0.92452 -0.52682,-3.17088 0.26562,-2.64258 0,0.13207 -0.26562,0.26367 -0.26562,0.26367 1.05655,1.18865 4.75492,-0.92395 5.2832,0.79297 0.13208,0.26414 -0.65941,0.13232 -0.52734,0.39647 0.13207,0.26413 0.79175,0.26321 0.92383,0.52736 0.26414,0.26415 -4.7e-4,0.92529 0.26367,1.18944 0.52829,0.26414 5.02027,-0.92454 5.15234,-1.05664 0.26414,-0.26412 -0.26537,-0.92457 0.13086,-1.05664 0.52828,-0.39621 1.18852,0.26341 1.7168,-0.13282 0.52828,-0.26413 0.26469,-1.18702 0.79297,-1.45117 1.44905,-0.55733 3.83229,-0.0891 5.65429,-0.24414 v -43.46484 c -1.46768,-1.75903 -2.36195,-3.6195 -1.56054,-3.44141 0.52884,0.10576 1.13363,0.22196 1.56054,0.53125 v -71.80078 c -0.29724,0.72581 -0.54128,1.49284 -1.03125,2.06445 -0.66034,0.79243 -1.71734,1.1888 -2.50976,2.11329 -0.13208,0.13208 -10e-4,0.79323 0.13086,1.18945 -0.79241,-1.849 -2.64051,-1.45381 -4.35742,-0.5293 -1.18865,0.66035 -1.58574,3.96317 -2.2461,4.35938 -2.90555,1.98106 -1.45273,-1.85033 -2.77344,-1.98242 -1.05658,-10e-6 -1.84772,1.32153 -2.90429,1.18945 -5.01871,-0.52829 4.22595,-4.09544 2.37695,-7.5293 -0.92451,-1.58485 -3.56518,1.45313 -3.69726,1.45313 -0.66034,0.26413 -3.69976,-2.3762 -4.49219,-2.24414 -0.92449,0.13208 -0.92315,2.37668 -1.84766,1.98046 -0.79243,-0.26414 0.65943,-1.71733 0.52735,-2.50976 -0.13207,-1.18865 -2.64043,1.18818 -3.30079,0.26367 -0.52829,-0.66035 1.31985,-1.05645 1.58399,-1.7168 0.26415,-0.66036 0.3962,-1.45293 0,-2.11328 -0.13206,-0.26414 -0.79177,0.26414 -0.92383,0 -0.26414,-0.13208 0.26321,-0.39526 0.52734,-0.52734 0,0 0.26563,0.13208 0.26563,0 0,-0.39621 -0.13309,-0.92529 -0.5293,-1.18945 -0.66036,-0.39621 -1.58525,-0.39528 -2.50976,-0.52735 -0.39621,-0.13207 -0.9241,4.8e-4 -1.32032,-0.26367 -0.13207,-0.26414 0.26414,-0.92578 0,-0.92578 -0.52829,0.13206 -0.792,0.79324 -1.32031,1.18945 -0.26413,0.13207 -0.26489,-2.7e-4 -0.13281,-0.39648 -1.71694,-0.26415 -3.43346,-1.18899 -5.15039,-1.45313 -0.39621,0 -1.98174,0.13207 -2.90625,0 z m 38.54101,135.66602 c -1.35377,0.49533 -2.60375,1.45888 -4.07031,1.55664 -1.18866,0.13207 -5.81062,-0.39594 -6.86719,0.39649 l -1.71679,3.5664 c -2.11312,1.18864 -3.17,-1.58666 -4.22656,-1.71875 -2.11313,-0.26413 -0.26382,1.0566 -2.37696,0 -0.13204,0.5283 4.5e-4,1.19046 -0.26367,1.71875 -0.13208,0.52829 -0.52883,0.9229 -0.79297,1.45117 0,0.26414 2.50867,2.11428 0.92383,2.64258 -2.77351,0.66034 -1.84733,-3.17005 -4.22461,-1.45312 -1.84898,1.32069 0.52689,2.77325 0.79102,3.43359 0.13208,0.5283 -0.66016,0.92484 -0.66016,1.45313 0.13205,0.52828 0.65969,0.79127 0.92383,1.1875 0.13208,0.52828 -0.92288,1.0571 -1.45117,0.79296 -0.92451,-0.52829 -0.39656,-2.64138 -1.45313,-2.77344 -3.56593,-0.66037 -1.84975,1.98068 -3.96289,1.32032 -3.43385,-0.79243 -1.32018,-3.43312 -3.03711,-3.69727 -2.24521,-0.39622 -0.79297,3.16946 -0.79297,3.43359 -0.52827,2.37727 -3.69726,3.17061 -3.69726,6.07618 0,1.32073 2.64168,0.79089 0.39648,2.50781 -0.79243,0.66036 -1.05765,-1.58378 -1.58594,-2.24414 -0.39622,-0.39621 -1.32104,-0.13187 -1.45312,-0.66016 -0.13206,-0.52828 0.79372,-0.92484 0.92578,-1.45312 0,-0.26415 -0.26441,-0.5293 -0.39648,-0.5293 -1.45277,-0.52829 -3.56575,-0.92371 -4.49024,-2.64062 -0.13208,-0.52829 0.26367,-1.05692 0.26367,-1.45313 0,-0.79243 0.13133,-1.58454 -0.13281,-2.37695 -0.13206,-0.13208 -0.39601,0.13159 -0.66016,0.26367 -0.66036,0.52827 -1.1873,1.05767 -1.84765,1.58594 -0.66034,0.5283 -1.71828,0.79155 -1.98242,1.58398 -0.13208,0.52827 1.05784,0.79278 0.92578,1.45313 0,0.66034 -3.69802,4.49023 -3.83008,4.49023 -1.18865,0 -2.11409,-1.58445 -3.30274,-1.32031 -1.71692,0.39621 -5.28278,3.03742 -6.60351,0.66016 -6.07526,3.56591 -2.64197,1.98068 -0.79297,5.1504 0.26414,0.52828 -0.26341,1.45414 0.13281,1.98242 0.39621,0.92448 1.71706,1.05523 2.11328,1.84765 0.66035,1.18863 -3.56622,4.6238 -4.22656,4.75585 -0.39621,0.13209 -0.66044,-0.6621 -1.05664,-0.6621 -0.66036,0.13208 -1.84766,0.13261 -1.84766,0.79296 -0.26415,2.11313 4.09356,3.83015 4.75391,4.88672 0.3962,0.79241 0.52734,1.8497 0.52734,2.90625 -0.13208,0.39623 -1.31909,-0.26534 -1.45117,0.13086 -0.13206,0.26414 0.26294,0.53005 0.13086,0.66211 -0.39622,0.66036 -1.05569,1.05571 -1.58398,1.58399 -0.39621,0.79242 0.92457,1.18777 1.05664,1.58398 0,0.26412 -0.66016,0.26517 -0.66016,0.52931 -0.13207,1.84898 3.30114,4.3577 4.75391,4.75389 0.79243,0.26414 1.71733,-0.13086 2.50976,-0.13086 0.79244,-0.13207 1.7166,-0.66183 2.37696,-0.26561 1.98106,1.45276 -2.50997,4.49186 -1.84961,6.86914 1.98106,-0.26412 5.01941,-0.13271 6.73633,-1.84961 1.05657,-0.92449 1.71612,-3.03841 2.64062,-3.96289 0.3962,-0.39622 1.45339,-0.26274 1.84961,-0.79103 0.39621,-0.39619 -4.7e-4,-1.18849 0.26367,-1.71679 0.26414,-0.52827 3.69826,-2.50977 4.22656,-2.50977 1.32071,0 4.09356,1.32086 4.75391,2.11328 0.13207,0.26415 0.5288,0.39573 0.79297,0.26367 0.26412,-0.13207 -0.13133,-0.79296 0.13281,-0.79296 1.05658,0 4.35771,3.43507 4.75391,3.69921 0.92449,0.66035 1.71687,1.45267 2.77344,1.71681 0.39622,0.13208 -0.39621,-1.05664 0,-1.05664 0.66036,0 1.05643,0.7925 1.71679,1.05664 0.13206,0.13208 0.26441,-0.26563 0.39649,-0.26563 0.39622,0.13208 0.92533,0.26394 1.18945,0.66016 3.30179,3.03763 1.32026,6.60427 4.09375,10.56641 1.45279,2.24521 1.84933,3.16911 1.45313,5.81054 0,0.0585 -0.017,0.12328 -0.0274,0.18555 h 18.0957 z m -72.08627,-43.61191 c -0.3962,-0.13207 -0.79241,-0.26413 -1.18863,-0.26413 -0.92449,-0.13208 -1.84898,0.79243 -2.64142,0.39621 -0.66035,-0.26415 -0.13207,-1.45278 -0.52829,-1.98108 -0.26414,-0.39621 -0.92449,-0.13206 -1.32071,-0.39621 -0.13207,-0.13206 0.5283,-0.39622 0.5283,-0.52826 -0.13208,-0.26417 -0.26414,-0.5283 -0.5283,-0.66037 -0.26413,-0.13207 -0.66035,0.3962 -0.79243,0.26415 -0.52829,-0.39622 -0.66035,-1.18865 -1.18864,-1.58486 -0.9245,-0.39622 -2.24522,0 -2.77348,-0.79243 -0.5283,-0.52828 0.52826,-1.32071 0.52826,-1.98107 -0.13205,-0.52827 -0.92448,-0.66035 -0.92448,-1.18864 0,-0.66034 0.52828,-1.18863 0.66036,-1.71693 0.13207,-0.39621 0.79243,-0.79243 0.52829,-1.05657 -0.92451,-0.79241 -1.71694,1.58487 -2.64143,2.37728 -1.84899,1.71693 -6.20736,0.66036 -5.81114,-0.13207 0.39621,-0.66034 1.05658,-1.05656 1.05658,-1.71691 0,-0.39622 -1.05658,-0.39622 -0.92451,-0.9245 0,-0.79243 1.05657,-1.4528 1.05657,-2.24523 -0.26414,-2.24519 -5.67906,-0.92449 -5.9432,-1.98105 -0.13206,-0.52829 0.26414,-1.18864 0.13208,-1.71694 -0.39622,-2.11313 -3.30179,0 -4.09422,-1.84898 -0.52827,-1.05659 0.26415,-4.0942 -1.45277,-4.75457 -0.79243,-0.39622 -1.45279,1.45278 -2.50936,1.45278 -2.90557,0 -3.03763,-5.01869 -3.30177,-6.86769 0.13206,-0.13208 0.13206,-0.13208 0.13206,-0.13208 2.37728,-0.66036 6.07528,-3.56591 9.11292,-4.4904 l 0.26413,0.52827 c -0.26413,3.43385 2.50936,1.18864 4.49042,2.11313 0.26414,0.13209 -0.26412,0.66037 0,0.92451 1.58485,1.05657 2.90557,-0.79242 3.96214,-1.71693 0.79243,0.66034 1.58486,1.18863 1.84899,1.05656 0.39621,-0.26414 0.26414,-0.79242 0,-1.3207 0.39621,0.13207 0.66035,0.26414 1.05657,0.13207 0.92451,0 -1.58485,-3.03764 1.58486,-2.11314 0.26414,0 -0.26414,0.66036 -0.13208,0.79243 1.58487,1.32071 1.98108,-1.849 3.16971,-0.9245 0.39622,0.39622 -1.05655,1.18865 -0.66034,1.45279 3.03762,1.58483 0.3962,-0.39622 2.77348,-0.92449 0.39622,-0.13208 1.05659,3.69798 1.98108,3.83004 2.11313,0.39622 4.88662,0.26416 6.60354,2.50936 0.13208,0.26415 -0.52826,0.52829 -0.66034,0.79243 -0.26414,0.79242 -0.9245,1.45279 -1.05658,2.2452 0,0.26414 0.66037,0.13206 0.52829,0.39622 -0.13208,0.39621 -0.79243,0.52829 -0.92451,1.05657 -0.92449,3.30177 1.32073,2.37729 3.43387,2.50935 h 0.13206 c 0.52828,0.9245 1.32072,2.37728 1.45278,2.37728 0.26416,0.26414 1.05657,-0.26414 1.05657,0.13208 0.13208,0.52828 -0.92449,1.05657 -0.79241,1.58485 0.26414,0.79243 1.45277,0.66036 1.84898,1.32072 1.4528,2.37726 -2.11314,2.77348 -3.03764,5.28283 -1.45277,-2.50935 -4.09421,2.3773 -4.62248,3.83007 -0.39622,1.18864 3.56592,6.33942 0.66035,6.07528 z m -176.10513,72.84825 c -1.06535,-0.19501 -2.20798,1.17836 -3.24805,1.64061 -3.16969,1.32071 -7.79074,4.2261 -11.22461,4.49025 -1.05655,0.13205 -1.84994,-0.26415 -3.30273,0 -0.13208,0 -0.65941,0.26319 -0.52735,0.52733 0.39621,0.26414 1.58326,-0.13255 1.45118,0.26367 -0.13208,0.66036 -3.82954,-0.65914 -3.03711,3.69922 1.05657,6.33941 6.34003,-1.05746 5.67968,5.41406 -0.13208,0.79242 -1.32057,0.92557 -1.71679,1.58594 -0.39621,0.52828 -0.13234,1.1885 -0.39649,1.71681 -0.13207,0.13205 -1.45239,-1.58438 -1.32031,-0.26368 0.13207,0.5283 0.52836,1.187 1.05664,1.45118 0.66035,0.26413 2.50901,-0.79243 2.37695,0 -0.26416,0.92449 -1.98101,0.52835 -2.77343,1.05664 -0.52828,0.52828 -0.26388,1.71799 0.39648,1.58594 0.79241,-0.13208 1.58451,-0.92458 2.37695,-1.05665 0.39621,-0.13207 -0.13234,0.5281 -0.39648,0.66016 -0.92449,0.79243 -2.90577,0.39534 -3.16992,1.58399 -0.13208,0.26415 0.39695,0.79371 0.13281,0.92578 -0.26416,0.26415 -1.05784,-0.66183 -0.92578,-0.26563 0,1.05657 1.4536,1.98248 1.18945,3.03906 1.98106,-1.05658 5.28287,-1.84861 7.66016,-1.32031 0.26412,0.13204 -0.39572,0.65969 -0.26367,0.92383 0.26417,0.26416 0.79249,-4.9e-4 1.05664,0.26367 1.58485,1.58484 -4.62282,2.11418 -1.45313,4.35938 1.18865,0.79243 2.77324,-1.05739 3.4336,-1.18946 0.13207,-0.13208 0,0.39526 0,0.52735 0,0.26412 -0.26488,0.53004 -0.13282,0.66211 0.79243,0.13207 1.71735,-0.13207 2.50977,0 0.52829,0 1.18824,0.13186 1.32031,0.66014 0.26414,0.26413 -0.79148,0.52809 -0.52734,0.66017 0.3962,0.26414 1.05571,-0.39695 1.58398,-0.13281 0.5283,0.13208 2.51038,1.98135 4.35938,0.39648 0.26414,-0.26414 -0.26415,-0.92529 0,-1.18945 1.18863,-0.79243 1.0557,0.52883 1.58398,0.79297 3.03764,1.18866 3.56681,-4.1e-4 6.07617,1.32031 0.52828,0.26416 -0.66036,5.28395 0,5.41601 0.46377,0.0663 1.55717,0.0328 2.4336,0.31641 h 101.35547 c -0.0634,-0.27378 -0.15345,-0.53408 -0.37696,-0.71289 -0.39622,-0.39621 -1.18924,-0.39722 -1.84961,-0.5293 -0.26414,0 -0.6609,0.13208 -0.79297,0 -1.45278,-1.3207 -2.77235,-2.90458 -5.01757,-3.30079 -1.58486,-0.26414 -0.92579,2.77345 -0.92579,2.77345 -1.45279,-0.13207 -2.64021,-1.18871 -3.96093,-1.05664 -0.39622,0 -0.39676,0.79297 -0.79297,0.79297 -0.79242,-0.13206 -1.18806,-1.05738 -1.98047,-1.18946 -0.79243,-0.13209 -1.32085,0.66138 -2.11328,0.52929 -1.71692,0 -1.05793,-1.71734 -1.98242,-2.50975 -1.849,-1.58488 -3.56628,0.79141 -5.28321,-0.52931 -0.13208,0 -1.4519,-3.03786 -1.58398,-3.16992 -1.71691,-1.32072 -4.62169,-0.66004 -6.4707,-2.37696 -0.26414,-0.26414 0.13207,-0.92336 0,-1.1875 -0.26414,-0.26415 -1.05718,1.18797 -1.84961,0.92383 -1.71694,-0.79243 2.11245,-2.37656 0.92383,-3.69726 -0.39623,-0.52828 -1.1873,-0.7937 -1.84766,-0.92578 -0.13207,0 -0.001,0.66136 -0.26563,0.52929 0,0 -1.45172,-1.32085 -2.24414,-2.11328 -2.50935,0.66037 -6.2069,0.79168 -7.92383,-0.13281 -0.66034,-0.39622 -1.05719,-1.32058 -1.8496,-1.7168 -0.5283,-0.3962 -1.58503,0.39743 -2.11329,-0.13086 -1.58486,-1.84899 0.9238,-2.24507 -2.90625,-1.7168 -0.5283,0.13208 -1.05615,0.26395 -1.32031,0.66016 -0.26412,0.26414 0.39622,1.1875 0,1.1875 -1.05657,0 -3.96101,-2.77297 -5.01758,-3.03711 0.13207,-0.13208 0.26368,-0.39722 0.26368,-0.52929 -0.79243,-1.58487 -3.5665,-1.31908 -4.62305,-1.45118 -0.5283,0 -1.0557,-0.13207 -1.58399,0 -0.26414,0.1321 -0.26517,0.65895 -0.52929,0.79102 -4.35836,1.32071 -12.94235,-2.90517 -16.24414,-5.15039 -0.39621,-0.26415 -1.189,0.65989 -1.45313,0.26367 -0.26416,-0.13208 0.52781,-0.52688 0.26367,-0.79102 -0.79242,-0.79242 -2.37749,2e-4 -3.16992,-0.66015 -0.79243,-0.66036 -0.92315,-2.24562 -1.84765,-2.50977 -1.05657,-0.26414 -1.9825,1.05664 -3.03907,1.05664 -0.79243,0 -1.18804,-0.79249 -1.98047,-1.05664 -0.79243,-0.13206 -2.50909,0.26293 -3.43359,0.13086 -3.69798,-0.52829 -1.71607,-0.65949 -5.41406,-1.58398 -0.66037,-0.13208 -0.92558,1.32153 -1.58594,1.18945 -3.30177,-0.79241 -3.03759,-7 -6.60352,-7 -1.05657,0 -1.71685,1.84886 -2.77343,1.7168 -0.66035,-0.13208 0.6611,-1.71706 0.13281,-2.11328 -0.14858,-0.0991 -0.29898,-0.15965 -0.45117,-0.18749 z m -11.64063,26.56836 c -2.02441,0.0495 -4.25248,0.69389 -5.73828,1.48632 -0.26414,1.3207 -3.56585,1.98128 -2.77344,3.16993 0.52829,0.66033 2.11282,0.39508 2.37696,1.1875 0.26415,0.66034 -1.4534,-0.13182 -1.84961,0.39647 -0.72351,1.08525 -0.66785,5.77543 -0.45313,7.71289 h 32.33985 c -0.87643,-0.28364 -1.96983,-0.25014 -2.4336,-0.3164 -0.66036,-0.13207 0.52828,-5.15185 0,-5.41602 -2.50936,-1.32072 -3.03853,-0.13165 -6.07617,-1.3203 -0.52828,-0.26414 -0.39535,-1.58541 -1.58398,-0.79297 -0.26415,0.26416 0.26414,0.9253 0,1.18944 -1.849,1.58488 -3.83108,-0.2644 -4.35938,-0.39647 -0.52827,-0.26414 -1.18778,0.39694 -1.58398,0.1328 -0.26414,-0.13207 0.79148,-0.39603 0.52734,-0.66016 -0.13207,-0.52828 -0.79202,-0.66015 -1.32031,-0.66015 -0.79242,-0.13206 -1.71734,0.13208 -2.50977,0 -0.13206,-0.13206 0.13282,-0.39799 0.13282,-0.66211 0,-0.13208 0.13207,-0.65943 0,-0.52734 -0.66036,0.13206 -2.24495,1.98189 -3.4336,1.18946 -3.16969,-2.24521 3.03798,-2.77455 1.45313,-4.35939 -0.26415,-0.26415 -0.79247,5e-4 -1.05664,-0.26367 -0.13205,-0.26414 0.52779,-0.79179 0.26367,-0.92383 -0.59432,-0.13206 -1.24707,-0.18251 -1.92188,-0.166 z"
         style="opacity:1;fill:#eeeeee;fill-opacity:1;fill-rule:evenodd;stroke:#cccccc;stroke-width:0.25600001;stroke-linejoin:round;stroke-miterlimit:4;stroke-dasharray:none;stroke-opacity:1"
         id="Denmark" />
      <circle
         r="0.75478107"
         cy="265.80316"
         cx="69.908722"
         id="path4808"
         style="display:inline;opacity:1;fill:#000000;fill-opacity:1;fill-rule:nonzero;stroke:none;stroke-width:0.53379142;stroke-linecap:butt;stroke-linejoin:miter;stroke-miterlimit:4;stroke-dasharray:none;stroke-dashoffset:0;stroke-opacity:1" />
      <circle
         style="display:inline;opacity:1;fill:#000000;fill-opacity:1;fill-rule:nonzero;stroke:none;stroke-width:0.53379142;stroke-linecap:butt;stroke-linejoin:miter;stroke-miterlimit:4;stroke-dasharray:none;stroke-dashoffset:0;stroke-opacity:1"
         id="circle4810"
         cx="38.294113"
         cy="246.20108"
         r="0.75478107" />
      <circle
         r="0.75478107"
         cy="284.83521"
         cx="52.180191"
         id="circle4812"
         style="display:inline;opacity:1;fill:#000000;fill-opacity:1;fill-rule:nonzero;stroke:none;stroke-width:0.53379142;stroke-linecap:butt;stroke-linejoin:miter;stroke-miterlimit:4;stroke-dasharray:none;stroke-dashoffset:0;stroke-opacity:1" />
      <path
         sodipodi:nodetypes="cszzc"
         inkscape:connector-curvature="0"
         id="path900"
         d="m 68.190488,266.03722 c 0,0 -13.497507,17.44889 -15.742105,16.37325 -2.445505,-1.17191 -13.191077,-35.23585 -12.565259,-35.79119 0.625818,-0.55534 10.744429,33.20308 12.749829,34.491 2.0054,1.28792 14.523635,-15.82856 14.523635,-15.82856"
         style="fill:none;stroke:#7570b3;stroke-width:0.26458332px;stroke-linecap:butt;stroke-linejoin:miter;stroke-opacity:1" />
      <path
         sodipodi:nodetypes="czc"
         inkscape:connector-curvature="0"
         id="path902"
         d="m 49.9078,284.3746 c 0,0 -12.967811,-36.70084 -11.983277,-36.69171 0.984534,0.009 12.770737,36.17479 12.770737,36.17479"
         style="fill:none;stroke:#d95f02;stroke-width:0.26458332px;stroke-linecap:butt;stroke-linejoin:miter;stroke-opacity:1" />
      <path
         sodipodi:nodetypes="czzzc"
         inkscape:connector-curvature="0"
         id="path904"
         d="m 73.396419,269.28551 c 0,0 -17.257548,17.93293 -17.990378,17.1899 -0.73284,-0.74303 17.336653,-17.5595 16.696713,-18.17074 -0.63994,-0.61124 -17.701427,17.35244 -18.107217,16.6183 -0.40579,-0.73414 16.977335,-17.8315 16.977335,-17.8315"
         style="fill:none;stroke:#1b9e77;stroke-width:0.26458332px;stroke-linecap:butt;stroke-linejoin:miter;stroke-opacity:1" />
      <text
         id="text908"
         y="278.06485"
         x="44.000614"
         style="font-style:normal;font-variant:normal;font-weight:normal;font-stretch:normal;font-size:3.175px;line-height:1.25;font-family:'Linux Biolinum O';-inkscape-font-specification:'Linux Biolinum O, Normal';font-variant-ligatures:normal;font-variant-caps:normal;font-variant-numeric:normal;font-feature-settings:normal;text-align:center;letter-spacing:0px;word-spacing:0px;writing-mode:lr;text-anchor:middle;fill:#d95f02;fill-opacity:1;stroke:none;stroke-width:0.26458332;"
         xml:space="preserve"><tspan
           style="font-style:normal;font-variant:normal;font-weight:normal;font-stretch:normal;font-size:3.175px;font-family:'Linux Biolinum O';-inkscape-font-specification:'Linux Biolinum O, Normal';font-variant-ligatures:normal;font-variant-caps:normal;font-variant-numeric:normal;font-feature-settings:normal;text-align:center;writing-mode:lr;text-anchor:middle;fill:#d95f02;stroke-width:0.26458332;fill-opacity:1;"
           y="278.06485"
           x="44.000614"
           id="tspan906"
           sodipodi:role="line">A</tspan></text>
      <text
         id="text912"
         y="273.80054"
         x="57.390175"
         style="font-style:normal;font-variant:normal;font-weight:normal;font-stretch:normal;font-size:3.175px;line-height:1.25;font-family:'Linux Biolinum O';-inkscape-font-specification:'Linux Biolinum O, Normal';font-variant-ligatures:normal;font-variant-caps:normal;font-variant-numeric:normal;font-feature-settings:normal;text-align:center;letter-spacing:0px;word-spacing:0px;writing-mode:lr;text-anchor:middle;fill:#7570b3;fill-opacity:1;stroke:none;stroke-width:0.26458332;"
         xml:space="preserve"><tspan
           style="font-style:normal;font-variant:normal;font-weight:normal;font-stretch:normal;font-size:3.175px;font-family:'Linux Biolinum O';-inkscape-font-specification:'Linux Biolinum O, Normal';font-variant-ligatures:normal;font-variant-caps:normal;font-variant-numeric:normal;font-feature-settings:normal;text-align:center;writing-mode:lr;text-anchor:middle;fill:#7570b3;stroke-width:0.26458332;fill-opacity:1;"
           y="273.80054"
           x="57.390175"
           id="tspan910"
           sodipodi:role="line">B</tspan></text>
      <text
         id="text916"
         y="275.6897"
         x="71.679123"
         style="font-style:normal;font-variant:normal;font-weight:normal;font-stretch:normal;font-size:3.175px;line-height:1.25;font-family:'Linux Biolinum O';-inkscape-font-specification:'Linux Biolinum O, Normal';font-variant-ligatures:normal;font-variant-caps:normal;font-variant-numeric:normal;font-feature-settings:normal;text-align:center;letter-spacing:0px;word-spacing:0px;writing-mode:lr;text-anchor:middle;fill:#1b9e77;fill-opacity:1;stroke:none;stroke-width:0.26458332;opacity:1;"
         xml:space="preserve"><tspan
           style="font-style:normal;font-variant:normal;font-weight:normal;font-stretch:normal;font-size:3.175px;font-family:'Linux Biolinum O';-inkscape-font-specification:'Linux Biolinum O, Normal';font-variant-ligatures:normal;font-variant-caps:normal;font-variant-numeric:normal;font-feature-settings:normal;text-align:center;writing-mode:lr;text-anchor:middle;stroke-width:0.26458332;fill:#1b9e77;fill-opacity:1;"
           y="275.6897"
           x="71.679123"
           id="tspan914"
           sodipodi:role="line">C</tspan></text>
      <text
         id="text899"
         y="237.54565"
         x="50.084412"
         style="font-style:normal;font-variant:normal;font-weight:normal;font-stretch:normal;font-size:3.175px;line-height:1;font-family:'Linux Biolinum O';-inkscape-font-specification:'Linux Biolinum O, Normal';font-variant-ligatures:normal;font-variant-caps:normal;font-variant-numeric:normal;font-feature-settings:normal;text-align:center;writing-mode:lr;text-anchor:middle;fill:#000000;fill-opacity:1;"
         xml:space="preserve"><tspan
           id="tspan905"
           y="237.54565"
           x="50.084412"
           sodipodi:role="line">Landmark</tspan><tspan
           id="tspan909"
           y="240.36787"
           x="50.084412"
           sodipodi:role="line">(Manchester)</tspan></text>
      <text
         id="text913"
         y="288.1293"
         x="52.255123"
         style="font-style:normal;font-variant:normal;font-weight:normal;font-stretch:normal;font-size:3.175px;line-height:1;font-family:'Linux Biolinum O';-inkscape-font-specification:'Linux Biolinum O, Normal';font-variant-ligatures:normal;font-variant-caps:normal;font-variant-numeric:normal;font-feature-settings:normal;text-align:center;letter-spacing:0px;writing-mode:lr;text-anchor:middle;fill:#000000;fill-opacity:1;"
         xml:space="preserve"><tspan
           id="tspan919"
           y="288.1293"
           x="52.255123"
           sodipodi:role="line">Proxy</tspan><tspan
           id="tspan923"
           y="290.95154"
           x="52.255123"
           sodipodi:role="line">(Lyon)</tspan></text>
      <text
         xml:space="preserve"
         style="font-style:normal;font-variant:normal;font-weight:normal;font-stretch:normal;font-size:3.175px;line-height:1;font-family:'Linux Biolinum O';-inkscape-font-specification:'Linux Biolinum O, Normal';font-variant-ligatures:normal;font-variant-caps:normal;font-variant-numeric:normal;font-feature-settings:normal;text-align:center;letter-spacing:0px;writing-mode:lr;text-anchor:middle;fill:#000000;fill-opacity:1;"
         x="70.236511"
         y="260.68649"
         id="text4636"><tspan
           sodipodi:role="line"
           x="70.236511"
           y="260.68649"
           id="tspan4632">Client</tspan><tspan
           sodipodi:role="line"
           x="70.236511"
           y="263.50873"
           id="tspan4634">(Frankfurt)</tspan></text>
      <flowRoot
         style="font-style:normal;font-variant:normal;font-weight:normal;font-stretch:normal;font-size:8px;line-height:1.25;font-family:'Latin Modern Sans';-inkscape-font-specification:'Latin Modern Sans, Normal';font-variant-ligatures:normal;font-variant-caps:normal;font-variant-numeric:normal;font-feature-settings:normal;text-align:center;letter-spacing:0px;word-spacing:0px;writing-mode:lr-tb;text-anchor:middle;fill:#000000;fill-opacity:1;stroke:none"
         id="flowRoot4638"
         xml:space="preserve"><flowRegion
           id="flowRegion4640"><rect
             y="44.5"
             x="14.5"
             height="115.5"
             width="220"
             id="rect4642" /></flowRegion><flowPara
           id="flowPara4644" /></flowRoot>      <path
         sodipodi:nodetypes="cc"
         inkscape:connector-curvature="0"
         id="path7039"
         d="m 39.508109,245.66949 11.092569,-4.54454"
         style="fill:none;stroke:#000000;stroke-width:0.26458332px;stroke-linecap:butt;stroke-linejoin:miter;stroke-opacity:1;fill-opacity:1" />
    </g>
  </g>
</svg>
