lat,lon,phase
-33.8768043518066,151.198333740234,first
-30.0688972473145,-51.1206207275391,first
-27.5777854919434,153.095764160156,first
-26.144063949585,28.0348243713379,first
-23.5505199432373,-46.6333084106445,first
-22.2758007049561,166.457992553711,first
-12.089409828186,-77.0112609863281,first
-6.81328344345093,39.2887763977051,first
-1.94445013999939,30.0896759033203,first
1.35537934303284,103.867744445801,first
10.8230991363525,106.629661560059,first
11.5444440841675,104.937377929688,first
37.5003128051758,127.033905029297,first
39.1008110046387,-94.5811004638672,first
42.0039176940918,-87.970344543457,first
42.7073211669922,-84.6665802001953,first
47.9148139953613,106.913230895996,first
50.0994300842285,14.3927001953125,first
50.3973693847656,80.2541961669922,first
51.0388298034668,13.7322902679443,first
52.1402053833008,11.6441993713379,first
50.0994300842285,14.3927001953125,second
51.0388298034668,13.7322902679443,second
51.119499206543,-0.540499985218048,second
51.3911895751953,12.4814138412476,second
51.421501159668,-2.85249996185303,second
51.4575004577637,-0.172499999403954,second
51.4815826416016,-3.17909002304077,second
51.4995002746582,-0.450500011444092,second
51.5191040039062,-0.620630025863647,second
51.6085014343262,-3.98250007629395,second
51.6484985351562,-0.0785000026226044,second
51.7794990539551,-1.2684999704361,second
51.7975006103516,-0.210500001907349,second
52.3995018005371,-1.44149994850159,second
53.3182983398438,-6.44049978256226,second
53.3494987487793,-6.26149988174438,second
53.4015007019043,-1.45150005817413,second
53.4794998168945,-2.24950003623962,second
53.4995002746582,-1.46050000190735,second
53.5787391662598,-2.43826103210449,second
53.7304992675781,-7.80249977111816,second
53.8007545471191,-1.54907739162445,second
53.8585014343262,-9.28250026702881,second
58.8974990844727,5.70050001144409,second
60.2705001831055,5.24049997329712,second
61.1785011291504,6.84849977493286,second
62.0359535217285,-6.76681995391846,second
63.1085014343262,7.78749990463257,second

